<?xml version="1.0" encoding="UTF-8" standalone="no"?>
<!-- Created with Inkscape (http://www.inkscape.org/) -->

<svg
   xmlns:osb="http://www.openswatchbook.org/uri/2009/osb"
   xmlns:dc="http://purl.org/dc/elements/1.1/"
   xmlns:cc="http://creativecommons.org/ns#"
   xmlns:rdf="http://www.w3.org/1999/02/22-rdf-syntax-ns#"
   xmlns:svg="http://www.w3.org/2000/svg"
   xmlns="http://www.w3.org/2000/svg"
   xmlns:xlink="http://www.w3.org/1999/xlink"
   xmlns:sodipodi="http://sodipodi.sourceforge.net/DTD/sodipodi-0.dtd"
   xmlns:inkscape="http://www.inkscape.org/namespaces/inkscape"
   width="1080"
   height="1080"
   viewBox="0 0 285.74999 285.75001"
   version="1.1"
   id="svg8"
   inkscape:version="0.92.1 r15371"
   sodipodi:docname="Eltern.svg"
   inkscape:export-filename="C:\Users\robert\Dropbox\sepm\KonzeptBilder\personal-kind-anmeldung.png"
   inkscape:export-xdpi="96"
   inkscape:export-ydpi="96">
  <defs
     id="defs2">
    <linearGradient
       inkscape:collect="always"
       id="linearGradient12464">
      <stop
         style="stop-color:#585858;stop-opacity:1"
         offset="0"
         id="stop12460" />
      <stop
         style="stop-color:#060606;stop-opacity:1"
         offset="1"
         id="stop12462" />
    </linearGradient>
    <linearGradient
       inkscape:collect="always"
       id="linearGradient6450">
      <stop
         style="stop-color:#000000;stop-opacity:1;"
         offset="0"
         id="stop6446" />
      <stop
         style="stop-color:#000000;stop-opacity:0;"
         offset="1"
         id="stop6448" />
    </linearGradient>
    <linearGradient
       inkscape:collect="always"
       id="linearGradient6946">
      <stop
         style="stop-color:#c0bdc0;stop-opacity:1"
         offset="0"
         id="stop6942" />
      <stop
         style="stop-color:#e4d9e4;stop-opacity:0.55686277"
         offset="1"
         id="stop6944" />
    </linearGradient>
    <linearGradient
       id="linearGradient6914"
       osb:paint="solid">
      <stop
         style="stop-color:#290012;stop-opacity:1;"
         offset="0"
         id="stop6912" />
    </linearGradient>
    <linearGradient
       id="linearGradient5805"
       osb:paint="solid">
      <stop
         style="stop-color:#ff4b36;stop-opacity:1;"
         offset="0"
         id="stop5803" />
    </linearGradient>
    <color-profile
       name="Best-RGB"
       xlink:href="/usr/share/color/icc/colord/BestRGB.icc"
       id="color-profile3693" />
    <color-profile
       name="sRGB"
       xlink:href="/usr/share/color/icc/colord/sRGB.icc"
       id="color-profile3695" />
    <linearGradient
       inkscape:collect="always"
       id="linearGradient5177">
      <stop
         style="stop-color:#0030ff;stop-opacity:1"
         offset="0"
         id="stop5173" />
      <stop
         style="stop-color:#0074d9;stop-opacity:1"
         offset="1"
         id="stop5175" />
    </linearGradient>
    <linearGradient
       inkscape:collect="always"
       id="linearGradient5166">
      <stop
         style="stop-color:#0074d9;stop-opacity:0.99068326"
         offset="0"
         id="stop5162" />
      <stop
         style="stop-color:#7fdbff;stop-opacity:1"
         offset="1"
         id="stop5164" />
    </linearGradient>
    <linearGradient
       id="menu1-3"
       inkscape:collect="always">
      <stop
         id="stop5064"
         offset="0"
         style="stop-color:#7fdbff;stop-opacity:0.99675333" />
      <stop
         id="stop5066"
         offset="1"
         style="stop-color:#001f3f;stop-opacity:1" />
    </linearGradient>
    <linearGradient
       inkscape:collect="always"
       xlink:href="#menu1-3"
       id="linearGradient4531"
       x1="42.495853"
       y1="29.358038"
       x2="41.69405"
       y2="299.67267"
       gradientUnits="userSpaceOnUse"
       gradientTransform="matrix(0.82441143,0,0,0.67032965,-0.14078843,99.864196)" />
    <linearGradient
       inkscape:collect="always"
       xlink:href="#linearGradient5177"
       id="linearGradient4739-8"
       x1="46.854752"
       y1="100.46428"
       x2="47.271927"
       y2="12.229671"
       gradientUnits="userSpaceOnUse"
       gradientTransform="matrix(0.82441141,0,0,0.3239523,-0.14078434,61.97732)" />
    <linearGradient
       inkscape:collect="always"
       xlink:href="#linearGradient5166"
       id="linearGradient5168"
       gradientUnits="userSpaceOnUse"
       gradientTransform="matrix(0.82441141,0,0,0.57068491,-0.14077782,4.387506)"
       x1="46.740128"
       y1="104.43881"
       x2="47.271927"
       y2="12.229671" />
    <linearGradient
       inkscape:collect="always"
       xlink:href="#linearGradient6946"
       id="linearGradient6948"
       x1="130.43958"
       y1="20.034817"
       x2="265.22992"
       y2="281.69962"
       gradientUnits="userSpaceOnUse"
       gradientTransform="translate(6.0839844e-7,-11.249984)" />
    <linearGradient
       inkscape:collect="always"
       xlink:href="#linearGradient6450"
       id="linearGradient6452"
       x1="94.104848"
       y1="31.381569"
       x2="181.79975"
       y2="31.381569"
       gradientUnits="userSpaceOnUse" />
    <linearGradient
       inkscape:collect="always"
       xlink:href="#linearGradient12464"
       id="linearGradient12466"
       x1="-0.8018136"
       y1="154.55069"
       x2="105.87321"
       y2="170.64032"
       gradientUnits="userSpaceOnUse" />
  </defs>
  <sodipodi:namedview
     id="base"
     pagecolor="#ffffff"
     bordercolor="#666666"
     borderopacity="1.0"
     inkscape:pageopacity="1"
     inkscape:pageshadow="2"
     inkscape:zoom="0.70710678"
     inkscape:cx="256.89787"
     inkscape:cy="512.48527"
     inkscape:document-units="px"
     inkscape:current-layer="layer1"
     showgrid="false"
     units="px"
     inkscape:window-width="1920"
     inkscape:window-height="1057"
     inkscape:window-x="-8"
     inkscape:window-y="-8"
     inkscape:window-maximized="1"
     showguides="true"
     inkscape:guide-bbox="true">
    <sodipodi:guide
       position="72.571429,294.06548"
       orientation="1,0"
       id="guide4879"
       inkscape:locked="false" />
    <inkscape:grid
       type="xygrid"
       id="grid7287" />
  </sodipodi:namedview>
  <metadata
     id="metadata5">
    <rdf:RDF>
      <cc:Work
         rdf:about="">
        <dc:format>image/svg+xml</dc:format>
        <dc:type
           rdf:resource="http://purl.org/dc/dcmitype/StillImage" />
        <dc:title />
      </cc:Work>
    </rdf:RDF>
  </metadata>
  <g
     inkscape:groupmode="layer"
     id="layer3"
     inkscape:label="Background"
     style="display:inline"
     sodipodi:insensitive="true">
    <rect
       style="opacity:1;fill:url(#linearGradient6948);fill-opacity:1;stroke:#010101;stroke-width:0.0635;stroke-linecap:round;stroke-miterlimit:4;stroke-dasharray:0.508, 0.508;stroke-dashoffset:0;stroke-opacity:1"
       id="rect5179"
       width="213.97232"
       height="286.77216"
       x="72.571426"
       y="-0.22840326"
       ry="0" />
  </g>
  <g
     inkscape:groupmode="layer"
     id="layer2"
     inkscape:label="Logo"
     style="display:inline" />
  <g
     inkscape:label="Ebene 1"
     inkscape:groupmode="layer"
     id="layer1"
     transform="translate(0,-11.249983)"
     style="display:inline">
    <rect
       style="opacity:0.7;fill:url(#linearGradient12466);fill-opacity:1;stroke:none;stroke-width:0.02382501;stroke-linecap:round;stroke-miterlimit:4;stroke-dasharray:none;stroke-opacity:1"
       id="rect4485"
       width="73.373238"
       height="287.05823"
       x="-0.8018136"
       y="11.02158" />
    <path
       style="fill:#fefefe;fill-opacity:1;stroke:#ffffff;stroke-width:0.45077553;stroke-linecap:butt;stroke-linejoin:miter;stroke-miterlimit:4;stroke-dasharray:none;stroke-opacity:1"
       d="M -0.26726457,106.71482 H 72.571429"
       id="path4493-9-4"
       inkscape:connector-curvature="0" />
    <path
       style="fill:#fefefe;fill-opacity:1;stroke:#ffffff;stroke-width:0.45118886;stroke-linecap:butt;stroke-linejoin:miter;stroke-miterlimit:4;stroke-dasharray:none;stroke-opacity:1"
       d="M -0.4008999,120.83715 H 72.571429"
       id="path4493-9-4-7"
       inkscape:connector-curvature="0" />
    <path
       style="fill:#fefefe;fill-opacity:1;stroke:#ffffff;stroke-width:0.45118886;stroke-linecap:butt;stroke-linejoin:miter;stroke-miterlimit:4;stroke-dasharray:none;stroke-opacity:1"
       d="M -0.40089863,133.65535 H 72.571429"
       id="path4493-9-4-7-6"
       inkscape:connector-curvature="0" />
    <path
       style="fill:#fefefe;fill-opacity:1;stroke:#ffffff;stroke-width:0.45118886;stroke-linecap:butt;stroke-linejoin:miter;stroke-miterlimit:4;stroke-dasharray:none;stroke-opacity:1"
       d="M -0.40089842,284.13884 H 72.571429"
       id="path4493-9-4-7-4"
       inkscape:connector-curvature="0" />
    <text
       xml:space="preserve"
       style="font-style:normal;font-variant:normal;font-weight:normal;font-stretch:normal;font-size:4.93888903px;line-height:1.25;font-family:sans-serif;-inkscape-font-specification:'sans-serif, Normal';font-variant-ligatures:normal;font-variant-caps:normal;font-variant-numeric:normal;font-feature-settings:normal;text-align:start;letter-spacing:0px;word-spacing:0px;writing-mode:lr-tb;text-anchor:start;fill:#000000;fill-opacity:1;stroke:none;stroke-width:0.26458332"
       x="22.806353"
       y="128.65529"
       id="text4592"><tspan
         sodipodi:role="line"
         id="tspan4590"
         x="22.806353"
         y="128.65529"
         style="font-style:normal;font-variant:normal;font-weight:normal;font-stretch:normal;font-size:4.93888903px;font-family:sans-serif;-inkscape-font-specification:'sans-serif, Normal';font-variant-ligatures:normal;font-variant-caps:normal;font-variant-numeric:normal;font-feature-settings:normal;text-align:start;writing-mode:lr-tb;text-anchor:start;fill:#ffffff;fill-opacity:1;stroke-width:0.26458332">AUFGABEN</tspan></text>
    <text
       xml:space="preserve"
       style="font-style:normal;font-variant:normal;font-weight:normal;font-stretch:normal;font-size:4.93888903px;line-height:1.25;font-family:sans-serif;-inkscape-font-specification:'sans-serif, Normal';font-variant-ligatures:normal;font-variant-caps:normal;font-variant-numeric:normal;font-feature-settings:normal;text-align:start;letter-spacing:0px;word-spacing:0px;writing-mode:lr-tb;text-anchor:start;fill:#000000;fill-opacity:1;stroke:none;stroke-width:0.26458332"
       x="28.70122"
       y="115.84043"
       id="text4592-2"><tspan
         sodipodi:role="line"
         id="tspan4590-8"
         x="28.70122"
         y="115.84043"
         style="font-style:normal;font-variant:normal;font-weight:normal;font-stretch:normal;font-size:4.93888903px;font-family:sans-serif;-inkscape-font-specification:'sans-serif, Normal';font-variant-ligatures:normal;font-variant-caps:normal;font-variant-numeric:normal;font-feature-settings:normal;text-align:start;writing-mode:lr-tb;text-anchor:start;fill:#ffffff;fill-opacity:1;stroke-width:0.26458332">HOME</tspan></text>
    <text
       xml:space="preserve"
       style="font-style:normal;font-weight:normal;font-size:10.58333302px;line-height:1.25;font-family:sans-serif;letter-spacing:0px;word-spacing:0px;fill:#000000;fill-opacity:1;stroke:none;stroke-width:0.26458332"
       x="23.253195"
       y="141.62245"
       id="text4592-5"><tspan
         sodipodi:role="line"
         id="tspan4590-1"
         x="23.253195"
         y="150.98622"
         style="font-style:normal;font-variant:normal;font-weight:normal;font-stretch:normal;font-size:6.3499999px;font-family:sans-serif;-inkscape-font-specification:'sans-serif, Normal';font-variant-ligatures:normal;font-variant-caps:normal;font-variant-numeric:normal;font-feature-settings:normal;text-align:start;writing-mode:lr-tb;text-anchor:start;fill:#ffffff;fill-opacity:1;stroke-width:0.26458332" /></text>
    <text
       xml:space="preserve"
       style="font-style:normal;font-weight:normal;font-size:10.58333302px;line-height:1.25;font-family:sans-serif;letter-spacing:0px;word-spacing:0px;fill:#000000;fill-opacity:1;stroke:none;stroke-width:0.26458332"
       x="16.986847"
       y="140.75578"
       id="text4592-55"><tspan
         sodipodi:role="line"
         id="tspan4590-0"
         x="16.986847"
         y="140.75578"
         style="font-style:normal;font-variant:normal;font-weight:normal;font-stretch:normal;font-size:4.93888903px;font-family:sans-serif;-inkscape-font-specification:'sans-serif, Normal';font-variant-ligatures:normal;font-variant-caps:normal;font-variant-numeric:normal;font-feature-settings:normal;text-align:start;writing-mode:lr-tb;text-anchor:start;fill:#ffffff;fill-opacity:1;stroke-width:0.26458332">EINSTELLUNGEN</tspan></text>
    <text
       xml:space="preserve"
       style="font-style:normal;font-weight:normal;font-size:10.58333302px;line-height:1.25;font-family:sans-serif;letter-spacing:0px;word-spacing:0px;fill:#000000;fill-opacity:1;stroke:none;stroke-width:0.26458332"
       x="25.769243"
       y="292.62973"
       id="text4592-55-6"><tspan
         sodipodi:role="line"
         id="tspan4590-0-9"
         x="25.769243"
         y="292.62973"
         style="font-style:normal;font-variant:normal;font-weight:normal;font-stretch:normal;font-size:4.93888903px;font-family:sans-serif;-inkscape-font-specification:'sans-serif, Normal';font-variant-ligatures:normal;font-variant-caps:normal;font-variant-numeric:normal;font-feature-settings:normal;text-align:start;writing-mode:lr-tb;text-anchor:start;fill:#ffffff;fill-opacity:1;stroke-width:0.26458332">LOGOUT</tspan></text>
    <path
       style="fill:none;stroke:#ffffff;stroke-width:0.22780283px;stroke-linecap:butt;stroke-linejoin:miter;stroke-opacity:1"
       d="M -0.53453905,58.862833 H 64.649104"
       id="path4742"
       inkscape:connector-curvature="0" />
    <path
       style="fill:none;stroke:#ffffff;stroke-width:0.22833538px;stroke-linecap:butt;stroke-linejoin:miter;stroke-opacity:1"
       d="M 7.0826418,62.337337 H 72.571429"
       id="path4742-8"
       inkscape:connector-curvature="0" />
    <text
       xml:space="preserve"
       style="font-style:normal;font-variant:normal;font-weight:normal;font-stretch:normal;font-size:7.76111126px;line-height:1.25;font-family:sans-serif;-inkscape-font-specification:'sans-serif, Normal';font-variant-ligatures:normal;font-variant-caps:normal;font-variant-numeric:normal;font-feature-settings:normal;text-align:start;letter-spacing:0px;word-spacing:0px;writing-mode:lr-tb;text-anchor:start;fill:#000000;fill-opacity:1;stroke:none;stroke-width:0.26458332"
       x="1.0176587"
       y="53.628151"
       id="text4761"><tspan
         sodipodi:role="line"
         id="tspan4759"
         x="1.0176587"
         y="53.628151"
         style="font-style:normal;font-variant:normal;font-weight:normal;font-stretch:normal;font-size:7.76111126px;font-family:sans-serif;-inkscape-font-specification:'sans-serif, Normal';font-variant-ligatures:normal;font-variant-caps:normal;font-variant-numeric:normal;font-feature-settings:normal;text-align:start;writing-mode:lr-tb;text-anchor:start;fill:#ffffff;fill-opacity:1;stroke-width:0.26458332">ABC Kinderkrippe</tspan></text>
    <flowRoot
       xml:space="preserve"
       id="flowRoot4776"
       style="font-style:normal;font-weight:normal;font-size:40px;line-height:1.25;font-family:sans-serif;letter-spacing:0px;word-spacing:0px;fill:#000000;fill-opacity:1;stroke:none"><flowRegion
         id="flowRegion4778"><rect
           id="rect4780"
           width="2504.6428"
           height="59.285713"
           x="516.78571"
           y="-63.214291" /></flowRegion><flowPara
         id="flowPara4782" /></flowRoot>    <path
       style="fill:none;stroke:#ffffff;stroke-width:0.71632719;stroke-linecap:butt;stroke-linejoin:miter;stroke-miterlimit:4;stroke-dasharray:none;stroke-opacity:1"
       d="M 28.973552,117.59364 H 43.441858"
       id="path5428"
       inkscape:connector-curvature="0" />
    <text
       xml:space="preserve"
       style="font-style:normal;font-weight:normal;font-size:10.58333302px;line-height:1.25;font-family:sans-serif;letter-spacing:0px;word-spacing:0px;display:inline;fill:#000000;fill-opacity:1;stroke:none;stroke-width:0.26458332"
       x="95.738319"
       y="127.90024"
       id="text4749-0"><tspan
         sodipodi:role="line"
         id="tspan4747-1"
         x="95.738319"
         y="137.26401"
         style="stroke-width:0.26458332" /></text>
    <rect
       style="opacity:1;fill:#373737;fill-opacity:0.74833877;stroke:none;stroke-width:1.02658331;stroke-linecap:round;stroke-miterlimit:4;stroke-dasharray:none;stroke-opacity:1"
       id="rect4893"
       width="94.078865"
       height="9.6216993"
       x="91.337639"
       y="26.575714" />
    <text
       xml:space="preserve"
       style="font-style:normal;font-variant:normal;font-weight:bold;font-stretch:normal;font-size:4.23333311px;line-height:1.25;font-family:'DejaVu Sans';-inkscape-font-specification:'DejaVu Sans, Bold';font-variant-ligatures:normal;font-variant-caps:normal;font-variant-numeric:normal;font-feature-settings:normal;text-align:start;letter-spacing:0px;word-spacing:0px;writing-mode:lr-tb;text-anchor:start;fill:#000000;fill-opacity:1;stroke:none;stroke-width:0.27458671"
       x="97.108261"
       y="31.131735"
       id="text4767-4"
       transform="scale(0.96340154,1.0379888)"><tspan
         sodipodi:role="line"
         id="tspan4765-9"
         x="97.108261"
         y="31.131735"
         style="font-style:normal;font-variant:normal;font-weight:bold;font-stretch:normal;font-size:4.23333311px;font-family:'DejaVu Sans';-inkscape-font-specification:'DejaVu Sans, Bold';font-variant-ligatures:normal;font-variant-caps:normal;font-variant-numeric:normal;font-feature-settings:normal;text-align:start;writing-mode:lr-tb;text-anchor:start;fill:#ffffff;fill-opacity:1;stroke-width:0.27458671">Tagesanmeldungen</tspan></text>
    <rect
       style="opacity:1;fill:#8a338a;fill-opacity:0.74833877;stroke:none;stroke-width:1.02658331;stroke-linecap:round;stroke-miterlimit:4;stroke-dasharray:none;stroke-opacity:1"
       id="rect4913"
       width="94.078865"
       height="39.288631"
       x="91.337639"
       y="36.197414" />
    <text
       xml:space="preserve"
       style="font-style:normal;font-weight:normal;font-size:10.58333302px;line-height:1.25;font-family:sans-serif;letter-spacing:0px;word-spacing:0px;fill:#000000;fill-opacity:1;stroke:none;stroke-width:0.26458332"
       x="100.46778"
       y="58.316326"
       id="text4917"><tspan
         sodipodi:role="line"
         id="tspan4915"
         x="100.46778"
         y="58.316326"
         style="font-style:normal;font-variant:normal;font-weight:bold;font-stretch:normal;font-size:12.69999981px;font-family:sans-serif;-inkscape-font-specification:'sans-serif, Bold';font-variant-ligatures:normal;font-variant-caps:normal;font-variant-numeric:normal;font-feature-settings:normal;text-align:start;writing-mode:lr-tb;text-anchor:start;fill:#ffffff;fill-opacity:1;stroke-width:0.26458332">29.03.2017</tspan></text>
    <rect
       style="opacity:1;fill:none;fill-opacity:1;stroke:#ffffff;stroke-width:0.26458332;stroke-linecap:round;stroke-miterlimit:4;stroke-dasharray:none;stroke-opacity:1"
       id="rect4919"
       width="37.150448"
       height="6.1471992"
       x="140.26411"
       y="65.062531" />
    <text
       xml:space="preserve"
       style="font-style:normal;font-weight:normal;font-size:10.58333302px;line-height:1.25;font-family:sans-serif;letter-spacing:0px;word-spacing:0px;fill:#000000;fill-opacity:1;stroke:none;stroke-width:0.26458332"
       x="146.41132"
       y="69.071564"
       id="text4923"><tspan
         sodipodi:role="line"
         id="tspan4921"
         x="146.41132"
         y="69.071564"
         style="font-style:normal;font-variant:normal;font-weight:normal;font-stretch:normal;font-size:3.88055563px;font-family:sans-serif;-inkscape-font-specification:'sans-serif, Normal';font-variant-ligatures:normal;font-variant-caps:normal;font-variant-numeric:normal;font-feature-settings:normal;text-align:start;writing-mode:lr-tb;text-anchor:start;fill:#ffffff;fill-opacity:1;stroke-width:0.26458332">Alle anzeigen</tspan></text>
    <rect
       style="opacity:1;fill:#373737;fill-opacity:0.74833877;stroke:none;stroke-width:1.02658331;stroke-linecap:round;stroke-miterlimit:4;stroke-dasharray:none;stroke-opacity:1"
       id="rect4893-1"
       width="94.078865"
       height="9.6216993"
       x="183.83853"
       y="209.09351" />
    <rect
       style="opacity:1;fill:#b44c00;fill-opacity:0.74833877;stroke:none;stroke-width:1.02658331;stroke-linecap:round;stroke-miterlimit:4;stroke-dasharray:none;stroke-opacity:1"
       id="rect4913-0"
       width="94.078865"
       height="39.288631"
       x="183.83853"
       y="218.71521" />
    <text
       xml:space="preserve"
       style="font-style:normal;font-variant:normal;font-weight:bold;font-stretch:normal;font-size:4.23333311px;line-height:1.25;font-family:'DejaVu Sans';-inkscape-font-specification:'DejaVu Sans, Bold';font-variant-ligatures:normal;font-variant-caps:normal;font-variant-numeric:normal;font-feature-settings:normal;text-align:start;letter-spacing:0px;word-spacing:0px;writing-mode:lr-tb;text-anchor:start;fill:#000000;fill-opacity:1;stroke:none;stroke-width:0.27458671"
       x="194.63928"
       y="207.22714"
       id="text4767-4-3"
       transform="scale(0.96340154,1.0379888)"><tspan
         sodipodi:role="line"
         id="tspan4765-9-3"
         x="194.63928"
         y="207.22714"
         style="font-style:normal;font-variant:normal;font-weight:bold;font-stretch:normal;font-size:4.23333311px;font-family:'DejaVu Sans';-inkscape-font-specification:'DejaVu Sans, Bold';font-variant-ligatures:normal;font-variant-caps:normal;font-variant-numeric:normal;font-feature-settings:normal;text-align:start;writing-mode:lr-tb;text-anchor:start;fill:#ffffff;fill-opacity:1;stroke-width:0.27458671">Offene Aufgaben</tspan></text>
    <text
       xml:space="preserve"
       style="font-style:normal;font-weight:normal;font-size:10.58333302px;line-height:1.25;font-family:sans-serif;letter-spacing:0px;word-spacing:0px;fill:#000000;fill-opacity:1;stroke:none;stroke-width:0.26458332"
       x="191.23553"
       y="236.52719"
       id="text4917-7"><tspan
         sodipodi:role="line"
         id="tspan4915-0"
         x="191.23553"
         y="236.52719"
         style="font-style:normal;font-variant:normal;font-weight:bold;font-stretch:normal;font-size:12.69999981px;font-family:sans-serif;-inkscape-font-specification:'sans-serif, Bold';font-variant-ligatures:normal;font-variant-caps:normal;font-variant-numeric:normal;font-feature-settings:normal;text-align:start;writing-mode:lr-tb;text-anchor:start;fill:#ffffff;fill-opacity:1;stroke-width:0.26458332">3 Aufgaben</tspan></text>
    <rect
       style="opacity:1;fill:none;fill-opacity:1;stroke:#ffffff;stroke-width:0.26458332;stroke-linecap:round;stroke-miterlimit:4;stroke-dasharray:none;stroke-opacity:1"
       id="rect4919-2"
       width="37.150448"
       height="6.1471992"
       x="233.6843"
       y="245.84308" />
    <text
       xml:space="preserve"
       style="font-style:normal;font-weight:normal;font-size:10.58333302px;line-height:1.25;font-family:sans-serif;letter-spacing:0px;word-spacing:0px;fill:#000000;fill-opacity:1;stroke:none;stroke-width:0.26458332"
       x="239.8315"
       y="249.85211"
       id="text4923-5"><tspan
         sodipodi:role="line"
         id="tspan4921-4"
         x="239.8315"
         y="249.85211"
         style="font-style:normal;font-variant:normal;font-weight:normal;font-stretch:normal;font-size:3.88055563px;font-family:sans-serif;-inkscape-font-specification:'sans-serif, Normal';font-variant-ligatures:normal;font-variant-caps:normal;font-variant-numeric:normal;font-feature-settings:normal;text-align:start;writing-mode:lr-tb;text-anchor:start;fill:#ffffff;fill-opacity:1;stroke-width:0.26458332">Alle anzeigen</tspan></text>
    <rect
       style="opacity:1;fill:#373737;fill-opacity:0.74833877;stroke:none;stroke-width:1.02658331;stroke-linecap:round;stroke-miterlimit:4;stroke-dasharray:none;stroke-opacity:1"
       id="rect4893-1-0"
       width="94.078865"
       height="9.6216993"
       x="183.82364"
       y="86.459801" />
    <rect
       style="opacity:1;fill:#3d9970;fill-opacity:0;stroke:none;stroke-width:1.02658331;stroke-linecap:round;stroke-miterlimit:4;stroke-dasharray:none;stroke-opacity:1"
       id="rect4913-0-2"
       width="94.078865"
       height="39.288631"
       x="183.82364"
       y="96.081505" />
    <text
       xml:space="preserve"
       style="font-style:normal;font-variant:normal;font-weight:bold;font-stretch:normal;font-size:4.23333311px;line-height:1.25;font-family:'DejaVu Sans';-inkscape-font-specification:'DejaVu Sans, Bold';font-variant-ligatures:normal;font-variant-caps:normal;font-variant-numeric:normal;font-feature-settings:normal;text-align:start;letter-spacing:0px;word-spacing:0px;writing-mode:lr-tb;text-anchor:start;fill:#000000;fill-opacity:1;stroke:none;stroke-width:0.27458671"
       x="194.04706"
       y="89.333992"
       id="text4767-4-3-4"
       transform="scale(0.96340154,1.0379888)"><tspan
         sodipodi:role="line"
         id="tspan4765-9-3-8"
         x="194.04706"
         y="89.333992"
         style="font-style:normal;font-variant:normal;font-weight:bold;font-stretch:normal;font-size:4.23333311px;font-family:'DejaVu Sans';-inkscape-font-specification:'DejaVu Sans, Bold';font-variant-ligatures:normal;font-variant-caps:normal;font-variant-numeric:normal;font-feature-settings:normal;text-align:start;writing-mode:lr-tb;text-anchor:start;fill:#ffffff;fill-opacity:1;stroke-width:0.27458671">Bring-/Abholzeiten</tspan></text>
    <rect
       style="opacity:1;fill:#3d9970;fill-opacity:1;stroke:none;stroke-width:1.02658331;stroke-linecap:round;stroke-miterlimit:4;stroke-dasharray:none;stroke-opacity:1"
       id="rect4913-0-7"
       width="94.078865"
       height="39.288631"
       x="183.82364"
       y="96.081505" />
    <text
       xml:space="preserve"
       style="font-style:normal;font-weight:normal;font-size:10.58333302px;line-height:1.25;font-family:sans-serif;letter-spacing:0px;word-spacing:0px;fill:#000000;fill-opacity:1;stroke:none;stroke-width:0.26458332"
       x="215.65977"
       y="130.34077"
       id="text4917-7-6"><tspan
         sodipodi:role="line"
         id="tspan4915-0-0"
         x="215.65977"
         y="130.34077"
         style="font-style:normal;font-variant:normal;font-weight:bold;font-stretch:normal;font-size:6.3499999px;font-family:sans-serif;-inkscape-font-specification:'sans-serif, Bold';font-variant-ligatures:normal;font-variant-caps:normal;font-variant-numeric:normal;font-feature-settings:normal;text-align:start;writing-mode:lr-tb;text-anchor:start;fill:#ffffff;fill-opacity:1;stroke-width:0.26458332">15:15-16:15</tspan></text>
    <text
       xml:space="preserve"
       style="font-style:normal;font-weight:normal;font-size:10.58333302px;line-height:1.25;font-family:sans-serif;letter-spacing:0px;word-spacing:0px;fill:#000000;fill-opacity:1;stroke:none;stroke-width:0.26458332"
       x="186.5607"
       y="123.13522"
       id="text4917-7-6-4"><tspan
         sodipodi:role="line"
         id="tspan4915-0-0-0"
         x="186.5607"
         y="123.13522"
         style="font-style:normal;font-variant:normal;font-weight:bold;font-stretch:normal;font-size:6.3499999px;font-family:sans-serif;-inkscape-font-specification:'sans-serif, Bold';font-variant-ligatures:normal;font-variant-caps:normal;font-variant-numeric:normal;font-feature-settings:normal;text-align:start;writing-mode:lr-tb;text-anchor:start;fill:#ffffff;fill-opacity:1;stroke-width:0.26458332">Abholzeit:</tspan></text>
    <text
       xml:space="preserve"
       style="font-style:normal;font-weight:normal;font-size:10.58333302px;line-height:1.25;font-family:sans-serif;letter-spacing:0px;word-spacing:0px;fill:#000000;fill-opacity:1;stroke:none;stroke-width:0.26458332"
       x="214.08775"
       y="111.87181"
       id="text4917-7-6-8"><tspan
         sodipodi:role="line"
         id="tspan4915-0-0-6"
         x="214.08775"
         y="111.87181"
         style="font-style:normal;font-variant:normal;font-weight:bold;font-stretch:normal;font-size:6.3499999px;font-family:sans-serif;-inkscape-font-specification:'sans-serif, Bold';font-variant-ligatures:normal;font-variant-caps:normal;font-variant-numeric:normal;font-feature-settings:normal;text-align:start;writing-mode:lr-tb;text-anchor:start;fill:#ffffff;fill-opacity:1;stroke-width:0.26458332">07:15-08:15</tspan></text>
    <text
       xml:space="preserve"
       style="font-style:normal;font-weight:normal;font-size:10.58333302px;line-height:1.25;font-family:sans-serif;letter-spacing:0px;word-spacing:0px;fill:#000000;fill-opacity:1;stroke:none;stroke-width:0.26458332"
       x="186.3116"
       y="104.47723"
       id="text4917-7-6-4-5"><tspan
         sodipodi:role="line"
         id="tspan4915-0-0-0-8"
         x="186.3116"
         y="104.47723"
         style="font-style:normal;font-variant:normal;font-weight:bold;font-stretch:normal;font-size:6.3499999px;font-family:sans-serif;-inkscape-font-specification:'sans-serif, Bold';font-variant-ligatures:normal;font-variant-caps:normal;font-variant-numeric:normal;font-feature-settings:normal;text-align:start;writing-mode:lr-tb;text-anchor:start;fill:#ffffff;fill-opacity:1;stroke-width:0.26458332">Bringzeit:</tspan></text>
    <rect
       style="opacity:1;fill:#373737;fill-opacity:0.74833877;stroke:none;stroke-width:1.02658331;stroke-linecap:round;stroke-miterlimit:4;stroke-dasharray:none;stroke-opacity:1"
       id="rect4893-1-0-5"
       width="94.078865"
       height="9.6216993"
       x="88.711014"
       y="146.62802" />
    <rect
       style="opacity:1;fill:#00628b;fill-opacity:1;stroke:none;stroke-width:1.02658331;stroke-linecap:round;stroke-miterlimit:4;stroke-dasharray:none;stroke-opacity:1"
       id="rect4913-0-7-7"
       width="94.078865"
       height="39.288631"
       x="88.711014"
       y="156.24973" />
    <text
       xml:space="preserve"
       style="font-style:normal;font-variant:normal;font-weight:bold;font-stretch:normal;font-size:4.23333311px;line-height:1.25;font-family:'DejaVu Sans';-inkscape-font-specification:'DejaVu Sans, Bold';font-variant-ligatures:normal;font-variant-caps:normal;font-variant-numeric:normal;font-feature-settings:normal;text-align:start;letter-spacing:0px;word-spacing:0px;writing-mode:lr-tb;text-anchor:start;fill:#000000;fill-opacity:1;stroke:none;stroke-width:0.27458671"
       x="95.081993"
       y="146.96481"
       id="text4767-4-3-4-6"
       transform="scale(0.96340154,1.0379888)"><tspan
         sodipodi:role="line"
         id="tspan4765-9-3-8-7"
         x="95.081993"
         y="146.96481"
         style="font-style:normal;font-variant:normal;font-weight:bold;font-stretch:normal;font-size:4.23333311px;font-family:'DejaVu Sans';-inkscape-font-specification:'DejaVu Sans, Bold';font-variant-ligatures:normal;font-variant-caps:normal;font-variant-numeric:normal;font-feature-settings:normal;text-align:start;writing-mode:lr-tb;text-anchor:start;fill:#ffffff;fill-opacity:1;stroke-width:0.27458671">Essensanmeldung: 05.06. - 09.06.2017</tspan></text>
    <text
       xml:space="preserve"
       style="font-style:normal;font-weight:normal;font-size:10.58333302px;line-height:1.25;font-family:sans-serif;letter-spacing:0px;word-spacing:0px;fill:#000000;fill-opacity:1;stroke:none;stroke-width:0.26458332"
       x="96.417679"
       y="171.37444"
       id="text4917-7-0"><tspan
         sodipodi:role="line"
         id="tspan4915-0-2"
         x="96.417679"
         y="171.37444"
         style="font-style:normal;font-variant:normal;font-weight:bold;font-stretch:normal;font-size:12.69999981px;font-family:sans-serif;-inkscape-font-specification:'sans-serif, Bold';font-variant-ligatures:normal;font-variant-caps:normal;font-variant-numeric:normal;font-feature-settings:normal;text-align:start;writing-mode:lr-tb;text-anchor:start;fill:#ffffff;fill-opacity:1;stroke-width:0.26458332">Mo/Mi/Do</tspan></text>
    <rect
       style="opacity:1;fill:none;fill-opacity:1;stroke:#ffffff;stroke-width:0.26458332;stroke-linecap:round;stroke-miterlimit:4;stroke-dasharray:none;stroke-opacity:1"
       id="rect4919-2-3"
       width="37.150448"
       height="6.1471992"
       x="138.28951"
       y="185.72269" />
    <text
       xml:space="preserve"
       style="font-style:normal;font-weight:normal;font-size:10.58333302px;line-height:1.25;font-family:sans-serif;letter-spacing:0px;word-spacing:0px;fill:#000000;fill-opacity:1;stroke:none;stroke-width:0.26458332"
       x="142.84921"
       y="189.73172"
       id="text4923-5-9"><tspan
         sodipodi:role="line"
         id="tspan4921-4-3"
         x="142.84921"
         y="189.73172"
         style="font-style:normal;font-variant:normal;font-weight:normal;font-stretch:normal;font-size:3.88055563px;font-family:sans-serif;-inkscape-font-specification:'sans-serif, Normal';font-variant-ligatures:normal;font-variant-caps:normal;font-variant-numeric:normal;font-feature-settings:normal;text-align:start;writing-mode:lr-tb;text-anchor:start;fill:#ffffff;fill-opacity:1;stroke-width:0.26458332">Menü anzeigen</tspan></text>
    <text
       transform="scale(0.96340154,1.0379888)"
       id="text12211"
       y="42.34734"
       x="99.030701"
       style="font-style:normal;font-variant:normal;font-weight:bold;font-stretch:normal;font-size:4.23333311px;line-height:1.25;font-family:'DejaVu Sans';-inkscape-font-specification:'DejaVu Sans, Bold';font-variant-ligatures:normal;font-variant-caps:normal;font-variant-numeric:normal;font-feature-settings:normal;text-align:start;letter-spacing:0px;word-spacing:0px;writing-mode:lr-tb;text-anchor:start;fill:#000000;fill-opacity:1;stroke:none;stroke-width:0.27458671"
       xml:space="preserve"><tspan
         style="font-style:normal;font-variant:normal;font-weight:bold;font-stretch:normal;font-size:4.23333311px;font-family:'DejaVu Sans';-inkscape-font-specification:'DejaVu Sans, Bold';font-variant-ligatures:normal;font-variant-caps:normal;font-variant-numeric:normal;font-feature-settings:normal;text-align:start;writing-mode:lr-tb;text-anchor:start;fill:#ffffff;fill-opacity:1;stroke-width:0.27458671"
         y="42.34734"
         x="99.030701"
         id="tspan12209"
         sodipodi:role="line">Nächster Tag</tspan></text>
    <g
       id="g12217"
       transform="matrix(0.05449308,0,0,0.05449308,95.42604,218.39938)"
       style="fill:#ba672c;fill-opacity:0.95294118">
      <path
         id="path12213"
         d="m 256,153.5 c 56.5,0 102.5,46 102.5,102.5 0,56.5 -46,102.5 -102.5,102.5 -56.5,0 -102.5,-46 -102.5,-102.5 0,-56.5 46,-102.5 102.5,-102.5 m 0,-22 c -68.6,0 -124.5,55.8 -124.5,124.5 0,68.7 55.9,124.5 124.5,124.5 68.6,0 124.5,-55.9 124.5,-124.5 0,-68.6 -55.9,-124.5 -124.5,-124.5 z"
         inkscape:connector-curvature="0"
         style="fill:#ba672c;fill-opacity:0.95294118" />
      <path
         id="path12215"
         d="m 278.4,22 10.1,53.8 c 1.5,8.1 7.5,14.7 15.4,17.1 11.5,3.4 22.5,7.9 32.5,13.3 3.3,1.8 6.9,2.6 10.4,2.6 4.4,0 8.7,-1.3 12.4,-3.8 L 405,73.6 438.2,106.8 407,152.6 c -4.7,6.8 -5.1,15.6 -1.2,22.9 5.3,9.8 9.7,20.4 13,31.6 2.4,7.9 8.9,13.8 17,15.3 l 54.1,10.2 v 46.9 l -54.1,10.1 c -8.1,1.5 -14.7,7.4 -17,15.3 -3.4,11.4 -7.9,22.2 -13.3,32.2 -3.9,7.3 -3.5,16.1 1.2,22.9 l 31,45.3 -33.2,33.1 -45.5,-31.2 c -3.7,-2.6 -8.1,-3.8 -12.4,-3.8 -3.6,0 -7.1,0.9 -10.4,2.6 -10,5.4 -20.9,9.8 -32.2,13.1 -7.9,2.3 -13.9,8.9 -15.4,17.1 L 278.5,490 h -46.9 l -10.2,-54.4 c -1.5,-8 -7.3,-14.6 -15.2,-17 -10.9,-3.4 -21.3,-7.7 -30.9,-12.9 -3.3,-1.8 -6.9,-2.6 -10.5,-2.6 -4.4,0 -8.7,1.3 -12.4,3.8 L 107.5,437.6 74.3,404.4 105,359.5 c 4.6,-6.8 5.1,-15.6 1.2,-22.9 -5.4,-9.9 -9.8,-20.6 -13.1,-31.8 -2.4,-7.9 -8.9,-13.8 -17,-15.3 L 22,279.4 v -46.9 l 54.1,-10.1 c 8.1,-1.5 14.6,-7.4 17,-15.3 3.3,-11 7.6,-21.5 12.8,-31.2 3.9,-7.2 3.4,-16 -1.2,-22.8 L 73.6,107.6 106.8,74.4 152,105.3 c 3.7,2.6 8.1,3.8 12.4,3.8 3.6,0 7.2,-0.9 10.5,-2.7 9.7,-5.3 20.2,-9.7 31.2,-13 7.8,-2.4 13.7,-8.9 15.2,-17 L 231.5,22 h 46.9 M 286.1,0 H 223.9 C 218,0 212.4,4.7 211.4,10.4 l -11.6,62 c -12.3,3.8 -24.2,8.7 -35.3,14.7 L 113,51.8 c -2.1,-1.4 -4.6,-2.1 -7.1,-2.1 -3.4,0 -6.8,1.2 -9.1,3.6 l -44,44 c -4.1,4.1 -4.8,11.4 -1.5,16.2 l 35.5,51.8 c -6,11.1 -10.8,23 -14.5,35.3 L 10.6,212.2 C 4.7,213.4 0,219 0,224.8 V 287 c 0,5.9 4.7,11.5 10.4,12.5 L 72,311.1 c 3.8,12.6 8.7,24.7 14.8,36 l -35.1,51.3 c -3.3,4.8 -2.6,12.1 1.5,16.2 l 44,44 c 2.4,2.4 5.8,3.6 9.1,3.6 2.5,0 5,-0.7 7.1,-2.1 L 164.7,425 c 11,6 22.7,10.8 34.9,14.6 l 11.6,62 c 1.1,5.7 6.7,10.4 12.5,10.4 h 62.2 c 5.9,0 11.5,-4.7 12.5,-10.4 l 11.5,-61.4 c 12.7,-3.7 24.9,-8.7 36.4,-14.8 l 51.9,35.5 c 2.1,1.4 4.6,2.1 7.1,2.1 3.4,0 6.8,-1.2 9.1,-3.6 l 44,-44 c 4.1,-4.1 4.8,-11.4 1.5,-16.2 l -35.3,-51.6 c 6.2,-11.5 11.3,-23.7 15.1,-36.4 l 61.6,-11.6 c 5.7,-1.1 10.4,-6.7 10.4,-12.5 v -62.2 c 0,-5.9 -4.7,-11.5 -10.4,-12.5 l -61.7,-11.6 c -3.7,-12.5 -8.7,-24.4 -14.7,-35.7 l 35.7,-52.2 c 3.3,-4.8 2.6,-12.1 -1.5,-16.2 l -44,-44 c -2.4,-2.4 -5.8,-3.6 -9.1,-3.6 -2.5,0 -5,0.7 -7.1,2.1 L 346.7,86.9 C 335.1,80.7 322.8,75.6 309.9,71.9 L 298.4,10.5 C 297.6,4.7 292,0 286.1,0 Z"
         inkscape:connector-curvature="0"
         style="fill:#ba672c;fill-opacity:0.95294118" />
    </g>
    <text
       xml:space="preserve"
       style="font-style:normal;font-variant:normal;font-weight:bold;font-stretch:normal;font-size:7.76111126px;line-height:1.25;font-family:sans-serif;-inkscape-font-specification:'sans-serif, Bold';font-variant-ligatures:normal;font-variant-caps:normal;font-variant-numeric:normal;font-feature-settings:normal;text-align:start;letter-spacing:0px;word-spacing:0px;writing-mode:lr-tb;text-anchor:start;fill:#ba672d;fill-opacity:0.95686275;stroke:none;stroke-width:0.26458332"
       x="124.7551"
       y="231.75249"
       id="text12231"><tspan
         sodipodi:role="line"
         id="tspan12229"
         x="124.7551"
         y="231.75249"
         style="font-style:normal;font-variant:normal;font-weight:bold;font-stretch:normal;font-size:7.76111126px;font-family:sans-serif;-inkscape-font-specification:'sans-serif, Bold';font-variant-ligatures:normal;font-variant-caps:normal;font-variant-numeric:normal;font-feature-settings:normal;text-align:start;writing-mode:lr-tb;text-anchor:start;fill:#ba672d;fill-opacity:0.95686275;stroke-width:0.26458332">Aufgaben</tspan><tspan
         sodipodi:role="line"
         x="124.7551"
         y="241.45387"
         style="font-style:normal;font-variant:normal;font-weight:bold;font-stretch:normal;font-size:7.76111126px;font-family:sans-serif;-inkscape-font-specification:'sans-serif, Bold';font-variant-ligatures:normal;font-variant-caps:normal;font-variant-numeric:normal;font-feature-settings:normal;text-align:start;writing-mode:lr-tb;text-anchor:start;fill:#ba672d;fill-opacity:0.95686275;stroke-width:0.26458332"
         id="tspan12233">  verwalten</tspan></text>
    <g
       id="g12239"
       transform="matrix(0.07920058,0,0,0.07920058,186.00523,163.05497)"
       style="fill:none;fill-opacity:1;stroke:#00628b;stroke-opacity:1">
      <path
         style="fill:none;fill-opacity:1;stroke:#00628b;stroke-width:26.94244385;stroke-linecap:round;stroke-linejoin:miter;stroke-miterlimit:4;stroke-dasharray:none;stroke-opacity:1"
         d="M 314.38854,126.98763 H 28.034768"
         id="path12257"
         inkscape:connector-curvature="0" />
      <path
         style="fill:none;fill-opacity:1;stroke:#00628b;stroke-width:26.94244385;stroke-linecap:round;stroke-linejoin:miter;stroke-miterlimit:4;stroke-dasharray:none;stroke-opacity:1"
         d="M 202.12817,239.24799 314.38854,126.98763 202.1282,14.727291"
         id="path12261"
         inkscape:connector-curvature="0" />
    </g>
    <text
       xml:space="preserve"
       style="font-style:normal;font-weight:normal;font-size:10.58333302px;line-height:1.25;font-family:sans-serif;letter-spacing:0px;word-spacing:0px;fill:#000000;fill-opacity:1;stroke:none;stroke-width:0.26458332"
       x="216.27451"
       y="17.489511"
       id="text12286"><tspan
         sodipodi:role="line"
         id="tspan12284"
         x="216.27451"
         y="17.489511"
         style="stroke-width:0.26458332" /></text>
    <text
       xml:space="preserve"
       style="font-style:normal;font-variant:normal;font-weight:bold;font-stretch:normal;font-size:7.76111126px;line-height:1.25;font-family:sans-serif;-inkscape-font-specification:'sans-serif, Bold';font-variant-ligatures:normal;font-variant-caps:normal;font-variant-numeric:normal;font-feature-settings:normal;text-align:start;letter-spacing:0px;word-spacing:0px;writing-mode:lr-tb;text-anchor:start;display:inline;fill:#985598;fill-opacity:0.98823529;stroke:none;stroke-width:0.26458332;"
       x="208.02068"
       y="49.824352"
       id="text12231-8-7"><tspan
         sodipodi:role="line"
         id="tspan12229-3-7"
         x="208.02068"
         y="49.824352"
         style="font-style:normal;font-variant:normal;font-weight:bold;font-stretch:normal;font-size:7.76111126px;font-family:sans-serif;-inkscape-font-specification:'sans-serif, Bold';font-variant-ligatures:normal;font-variant-caps:normal;font-variant-numeric:normal;font-feature-settings:normal;text-align:start;writing-mode:lr-tb;text-anchor:start;fill:#985598;fill-opacity:0.98823529;stroke-width:0.26458332;">Abwesenheit</tspan><tspan
         sodipodi:role="line"
         x="208.02068"
         y="59.525738"
         style="font-style:normal;font-variant:normal;font-weight:bold;font-stretch:normal;font-size:7.76111126px;font-family:sans-serif;-inkscape-font-specification:'sans-serif, Bold';font-variant-ligatures:normal;font-variant-caps:normal;font-variant-numeric:normal;font-feature-settings:normal;text-align:start;writing-mode:lr-tb;text-anchor:start;fill:#985598;fill-opacity:0.98823529;stroke-width:0.26458332;"
         id="tspan12233-5-2">           melden</tspan></text>
    <path
       style="fill:none;stroke:#975497;stroke-width:1.58749998;stroke-linecap:round;stroke-linejoin:miter;stroke-miterlimit:4;stroke-dasharray:none;stroke-opacity:0.98431373;fill-opacity:0.98431373"
       d="M 198.89,36.588456 V 55.903041"
       id="path12325"
       inkscape:connector-curvature="0" />
    <circle
       style="opacity:1;fill:none;fill-opacity:0.98431373;stroke:#975497;stroke-width:1.05833328;stroke-linecap:round;stroke-linejoin:miter;stroke-miterlimit:4;stroke-dasharray:none;stroke-dashoffset:0;stroke-opacity:0.98431373"
       id="path12327"
       cx="198.87865"
       cy="61.757908"
       r="2.4473958" />
    <circle
       style="opacity:1;fill:none;fill-opacity:0.98431373;stroke:none;stroke-width:3.17499995;stroke-linecap:round;stroke-linejoin:miter;stroke-miterlimit:4;stroke-dasharray:none;stroke-dashoffset:0;stroke-opacity:0.87058824"
       id="path12329"
       cx="198.94481"
       cy="61.691792"
       r="1.3229166" />
    <text
       xml:space="preserve"
       style="font-style:normal;font-variant:normal;font-weight:bold;font-stretch:normal;font-size:7.76111126px;line-height:1.25;font-family:sans-serif;-inkscape-font-specification:'sans-serif, Bold';font-variant-ligatures:normal;font-variant-caps:normal;font-variant-numeric:normal;font-feature-settings:normal;text-align:start;letter-spacing:0px;word-spacing:0px;writing-mode:lr-tb;text-anchor:start;display:inline;fill:#3d9970;fill-opacity:1;stroke:none;stroke-width:0.26458332"
       x="114.79849"
       y="107.98222"
       id="text12231-8-7-3"><tspan
         sodipodi:role="line"
         x="114.79849"
         y="107.98222"
         style="font-style:normal;font-variant:normal;font-weight:bold;font-stretch:normal;font-size:7.76111126px;font-family:sans-serif;-inkscape-font-specification:'sans-serif, Bold';font-variant-ligatures:normal;font-variant-caps:normal;font-variant-numeric:normal;font-feature-settings:normal;text-align:start;writing-mode:lr-tb;text-anchor:start;fill:#3d9970;fill-opacity:1;stroke-width:0.26458332"
         id="tspan12233-5-2-4">Abholperson</tspan><tspan
         sodipodi:role="line"
         x="114.79849"
         y="117.68361"
         style="font-style:normal;font-variant:normal;font-weight:bold;font-stretch:normal;font-size:7.76111126px;font-family:sans-serif;-inkscape-font-specification:'sans-serif, Bold';font-variant-ligatures:normal;font-variant-caps:normal;font-variant-numeric:normal;font-feature-settings:normal;text-align:start;writing-mode:lr-tb;text-anchor:start;fill:#3d9970;fill-opacity:1;stroke-width:0.26458332"
         id="tspan12354">       festlegen</tspan></text>
    <text
       xml:space="preserve"
       style="font-style:normal;font-weight:normal;font-size:10.58333302px;line-height:1.25;font-family:sans-serif;letter-spacing:0px;word-spacing:0px;fill:#000000;fill-opacity:1;stroke:none;stroke-width:0.26458332"
       x="143.66875"
       y="81.364563"
       id="text12358"><tspan
         sodipodi:role="line"
         id="tspan12356"
         x="143.66875"
         y="90.728333"
         style="stroke-width:0.26458332" /></text>
    <g
       id="g12364"
       transform="matrix(0.05700415,0,0,0.05700415,87.882645,95.570106)"
       style="fill:#3d9970;fill-opacity:1">
      <path
         id="path12360"
         d="M 256,274.1 C 180.4,274.1 118.9,212.6 118.9,137 118.9,61.4 180.4,0 256,0 c 75.6,0 137.1,61.5 137.1,137.1 0,75.6 -61.5,137 -137.1,137 z m 0,-253.7 c -64.3,0 -116.6,52.3 -116.6,116.6 0,64.3 52.3,116.7 116.6,116.7 64.3,0 116.6,-52.3 116.6,-116.6 C 372.6,72.8 320.3,20.4 256,20.4 Z"
         inkscape:connector-curvature="0"
         style="fill:#3d9970;fill-opacity:1" />
      <path
         id="path12362"
         d="m 493.9,512 c -5.6,0 -10.2,-4.6 -10.2,-10.2 0,-125.5 -102.1,-227.6 -227.6,-227.6 -125.5,0 -227.6,102.1 -227.6,227.6 0,5.6 -4.6,10.2 -10.2,10.2 -5.6,0 -10.2,-4.6 -10.2,-10.2 0,-66.3 25.8,-128.6 72.7,-175.4 46.9,-46.8 109.2,-72.7 175.4,-72.7 66.2,0 128.6,25.8 175.4,72.7 46.8,46.9 72.7,109.2 72.7,175.4 -0.2,5.6 -4.8,10.2 -10.4,10.2 z"
         inkscape:connector-curvature="0"
         style="fill:#3d9970;fill-opacity:1" />
    </g>
    <text
       id="text12380"
       y="169.72981"
       x="213.06094"
       style="font-style:normal;font-variant:normal;font-weight:bold;font-stretch:normal;font-size:7.76111126px;line-height:1.25;font-family:sans-serif;-inkscape-font-specification:'sans-serif, Bold';font-variant-ligatures:normal;font-variant-caps:normal;font-variant-numeric:normal;font-feature-settings:normal;text-align:start;letter-spacing:0px;word-spacing:0px;writing-mode:lr-tb;text-anchor:start;fill:#00628b;fill-opacity:1;stroke:none;stroke-width:0.26458332"
       xml:space="preserve"><tspan
         style="font-style:normal;font-variant:normal;font-weight:bold;font-stretch:normal;font-size:7.76111126px;font-family:sans-serif;-inkscape-font-specification:'sans-serif, Bold';font-variant-ligatures:normal;font-variant-caps:normal;font-variant-numeric:normal;font-feature-settings:normal;text-align:start;writing-mode:lr-tb;text-anchor:start;fill:#00628b;fill-opacity:1;stroke-width:0.26458332"
         y="169.72981"
         x="213.06094"
         id="tspan12376"
         sodipodi:role="line">Anmeldung</tspan><tspan
         id="tspan12378"
         style="font-style:normal;font-variant:normal;font-weight:bold;font-stretch:normal;font-size:7.76111126px;font-family:sans-serif;-inkscape-font-specification:'sans-serif, Bold';font-variant-ligatures:normal;font-variant-caps:normal;font-variant-numeric:normal;font-feature-settings:normal;text-align:start;writing-mode:lr-tb;text-anchor:start;fill:#00628b;fill-opacity:1;stroke-width:0.26458332"
         y="179.4312"
         x="213.06094"
         sodipodi:role="line">          ändern</tspan></text>
    <text
       xml:space="preserve"
       style="font-style:normal;font-variant:normal;font-weight:bold;font-stretch:normal;font-size:4.23333311px;line-height:1.25;font-family:'DejaVu Sans';-inkscape-font-specification:'DejaVu Sans, Bold';font-variant-ligatures:normal;font-variant-caps:normal;font-variant-numeric:normal;font-feature-settings:normal;text-align:start;letter-spacing:0px;word-spacing:0px;writing-mode:lr-tb;text-anchor:start;display:inline;fill:#000000;fill-opacity:1;stroke:none;stroke-width:0.27458671"
       x="94.733315"
       y="175.50021"
       id="text4767-4-3-4-6-8"
       transform="scale(0.96340154,1.0379888)"><tspan
         sodipodi:role="line"
         id="tspan4765-9-3-8-7-0"
         x="94.733315"
         y="175.50021"
         style="font-style:normal;font-variant:normal;font-weight:bold;font-stretch:normal;font-size:4.23333311px;font-family:'DejaVu Sans';-inkscape-font-specification:'DejaVu Sans, Bold';font-variant-ligatures:normal;font-variant-caps:normal;font-variant-numeric:normal;font-feature-settings:normal;text-align:start;writing-mode:lr-tb;text-anchor:start;fill:#ffffff;fill-opacity:1;stroke-width:0.27458671">Änderbar bis  Fr 02.06.2017   12:00Uhr </tspan></text>
    <text
       xml:space="preserve"
       style="font-style:normal;font-weight:normal;font-size:10.58333302px;line-height:1.25;font-family:sans-serif;letter-spacing:0px;word-spacing:0px;fill:#000000;fill-opacity:1;stroke:none;stroke-width:0.26458332"
       x="182.50499"
       y="182.40817"
       id="text12410"><tspan
         sodipodi:role="line"
         id="tspan12408"
         x="182.50499"
         y="182.40817"
         style="stroke-width:0.26458332" /></text>
    <text
       xml:space="preserve"
       style="font-style:normal;font-weight:normal;font-size:10.58333302px;line-height:1.25;font-family:sans-serif;letter-spacing:0px;word-spacing:0px;fill:#000000;fill-opacity:1;stroke:none;stroke-width:0.26458332"
       x="240.50624"
       y="191.9604"
       id="text12414"><tspan
         sodipodi:role="line"
         id="tspan12412"
         x="240.50624"
         y="191.9604"
         style="stroke-width:0.26458332" /></text>
    <text
       xml:space="preserve"
       style="font-style:normal;font-weight:normal;font-size:10.58333302px;line-height:1.25;font-family:sans-serif;letter-spacing:0px;word-spacing:0px;fill:#000000;fill-opacity:1;stroke:none;stroke-width:0.26458332"
       x="246.58286"
       y="191.48196"
       id="text12418"><tspan
         sodipodi:role="line"
         id="tspan12416"
         x="246.58286"
         y="191.48196"
         style="stroke-width:0.26458332" /></text>
    <text
       xml:space="preserve"
       style="font-style:normal;font-variant:normal;font-weight:normal;font-stretch:normal;font-size:3.52777767px;line-height:1.25;font-family:sans-serif;-inkscape-font-specification:'sans-serif, Normal';font-variant-ligatures:normal;font-variant-caps:normal;font-variant-numeric:normal;font-feature-settings:normal;text-align:start;letter-spacing:0px;word-spacing:0px;writing-mode:lr-tb;text-anchor:start;fill:#000000;fill-opacity:1;stroke:none;stroke-width:0.26458332"
       x="4.2994847"
       y="263.26566"
       id="text12422"><tspan
         sodipodi:role="line"
         id="tspan12420"
         x="4.2994847"
         y="263.26566"
         style="font-style:normal;font-variant:normal;font-weight:normal;font-stretch:normal;font-size:3.52777767px;font-family:sans-serif;-inkscape-font-specification:'sans-serif, Normal';font-variant-ligatures:normal;font-variant-caps:normal;font-variant-numeric:normal;font-feature-settings:normal;text-align:start;writing-mode:lr-tb;text-anchor:start;fill:#ffffff;fill-opacity:1;stroke-width:0.26458332">E-Mail:       abc.kindergarten@ibk.at</tspan></text>
    <text
       xml:space="preserve"
       style="font-style:normal;font-variant:normal;font-weight:normal;font-stretch:normal;font-size:3.52777767px;line-height:1.25;font-family:sans-serif;-inkscape-font-specification:'sans-serif, Normal';font-variant-ligatures:normal;font-variant-caps:normal;font-variant-numeric:normal;font-feature-settings:normal;text-align:start;letter-spacing:0px;word-spacing:0px;writing-mode:lr-tb;text-anchor:start;display:inline;fill:#000000;fill-opacity:1;stroke:none;stroke-width:0.26458332"
       x="4.0033531"
       y="268.64441"
       id="text12422-3"><tspan
         sodipodi:role="line"
         id="tspan12420-7"
         x="4.0033531"
         y="268.64441"
         style="font-style:normal;font-variant:normal;font-weight:normal;font-stretch:normal;font-size:3.52777767px;font-family:sans-serif;-inkscape-font-specification:'sans-serif, Normal';font-variant-ligatures:normal;font-variant-caps:normal;font-variant-numeric:normal;font-feature-settings:normal;text-align:start;writing-mode:lr-tb;text-anchor:start;fill:#ffffff;fill-opacity:1;stroke-width:0.26458332">Telefon:     0512/7894562 </tspan></text>
    <text
       id="text12444"
       y="273.93607"
       x="4.0033531"
       style="font-style:normal;font-variant:normal;font-weight:normal;font-stretch:normal;font-size:3.52777767px;line-height:1.25;font-family:sans-serif;-inkscape-font-specification:'sans-serif, Normal';font-variant-ligatures:normal;font-variant-caps:normal;font-variant-numeric:normal;font-feature-settings:normal;text-align:start;letter-spacing:0px;word-spacing:0px;writing-mode:lr-tb;text-anchor:start;display:inline;fill:#000000;fill-opacity:1;stroke:none;stroke-width:0.26458332"
       xml:space="preserve"><tspan
         style="font-style:normal;font-variant:normal;font-weight:normal;font-stretch:normal;font-size:3.52777767px;font-family:sans-serif;-inkscape-font-specification:'sans-serif, Normal';font-variant-ligatures:normal;font-variant-caps:normal;font-variant-numeric:normal;font-feature-settings:normal;text-align:start;writing-mode:lr-tb;text-anchor:start;fill:#ffffff;fill-opacity:1;stroke-width:0.26458332"
         y="273.93607"
         x="4.0033531"
         sodipodi:role="line"
         id="tspan12446">Anschrift:  Kinderweg 29</tspan></text>
    <text
       xml:space="preserve"
       style="font-style:normal;font-weight:normal;font-size:10.58333302px;line-height:1.25;font-family:sans-serif;letter-spacing:0px;word-spacing:0px;fill:#000000;fill-opacity:1;stroke:none;stroke-width:0.26458332"
       x="29.185833"
       y="88.021935"
       id="text12452"><tspan
         sodipodi:role="line"
         id="tspan12450"
         x="29.185833"
         y="97.385704"
         style="stroke-width:0.26458332" /></text>
    <text
       xml:space="preserve"
       style="font-style:normal;font-variant:normal;font-weight:normal;font-stretch:normal;font-size:3.52777767px;line-height:1.25;font-family:sans-serif;-inkscape-font-specification:'sans-serif, Normal';font-variant-ligatures:normal;font-variant-caps:normal;font-variant-numeric:normal;font-feature-settings:normal;text-align:start;letter-spacing:0px;word-spacing:0px;writing-mode:lr-tb;text-anchor:start;display:inline;fill:#000000;fill-opacity:1;stroke:none;stroke-width:0.26458332"
       x="38.399197"
       y="279.22772"
       id="text12456"><tspan
         id="tspan12454"
         sodipodi:role="line"
         x="38.399197"
         y="279.22772"
         style="font-style:normal;font-variant:normal;font-weight:normal;font-stretch:normal;font-size:3.52777767px;font-family:sans-serif;-inkscape-font-specification:'sans-serif, Normal';font-variant-ligatures:normal;font-variant-caps:normal;font-variant-numeric:normal;font-feature-settings:normal;text-align:start;writing-mode:lr-tb;text-anchor:start;fill:#ffffff;fill-opacity:1;stroke-width:0.26458332">6020 Innsbruck</tspan></text>
    <path
       inkscape:connector-curvature="0"
       id="path12458"
       d="M -0.40089863,145.29709 H 72.571429"
       style="fill:#fefefe;fill-opacity:1;stroke:#ffffff;stroke-width:0.45118886;stroke-linecap:butt;stroke-linejoin:miter;stroke-miterlimit:4;stroke-dasharray:none;stroke-opacity:1" />
  </g>
</svg>
