<?xml version="1.0" encoding="UTF-8" standalone="no"?>
<!-- Created with Inkscape (http://www.inkscape.org/) -->

<svg
   xmlns:osb="http://www.openswatchbook.org/uri/2009/osb"
   xmlns:dc="http://purl.org/dc/elements/1.1/"
   xmlns:cc="http://creativecommons.org/ns#"
   xmlns:rdf="http://www.w3.org/1999/02/22-rdf-syntax-ns#"
   xmlns:svg="http://www.w3.org/2000/svg"
   xmlns="http://www.w3.org/2000/svg"
   xmlns:xlink="http://www.w3.org/1999/xlink"
   xmlns:sodipodi="http://sodipodi.sourceforge.net/DTD/sodipodi-0.dtd"
   xmlns:inkscape="http://www.inkscape.org/namespaces/inkscape"
   width="1080"
   height="1080"
   viewBox="0 0 285.74999 285.75001"
   version="1.1"
   id="svg8"
   inkscape:version="0.92.1 r15371"
   sodipodi:docname="Personal-elternverwaltung.svg"
   inkscape:export-filename="F:\KonzeptBilder\personal-elternwaltung.png"
   inkscape:export-xdpi="96"
   inkscape:export-ydpi="96">
  <defs
     id="defs2">
    <linearGradient
       inkscape:collect="always"
       id="linearGradient6908">
      <stop
         style="stop-color:#ffffff;stop-opacity:1;"
         offset="0"
         id="stop6904" />
      <stop
         style="stop-color:#ffffff;stop-opacity:0;"
         offset="1"
         id="stop6906" />
    </linearGradient>
    <linearGradient
       inkscape:collect="always"
       id="linearGradient6946">
      <stop
         style="stop-color:#c0bd9f;stop-opacity:1"
         offset="0"
         id="stop6942" />
      <stop
         style="stop-color:#efe4ef;stop-opacity:0.55686277"
         offset="1"
         id="stop6944" />
    </linearGradient>
    <linearGradient
       id="linearGradient6914"
       osb:paint="solid">
      <stop
         style="stop-color:#290012;stop-opacity:1;"
         offset="0"
         id="stop6912" />
    </linearGradient>
    <linearGradient
       id="linearGradient5805"
       osb:paint="solid">
      <stop
         style="stop-color:#ff4b36;stop-opacity:1;"
         offset="0"
         id="stop5803" />
    </linearGradient>
    <color-profile
       name="Best-RGB"
       xlink:href="/usr/share/color/icc/colord/BestRGB.icc"
       id="color-profile6176" />
    <color-profile
       name="sRGB"
       xlink:href="/usr/share/color/icc/colord/sRGB.icc"
       id="color-profile6178" />
    <linearGradient
       inkscape:collect="always"
       id="linearGradient5177">
      <stop
         style="stop-color:#0030ff;stop-opacity:1"
         offset="0"
         id="stop5173" />
      <stop
         style="stop-color:#0074d9;stop-opacity:1"
         offset="1"
         id="stop5175" />
    </linearGradient>
    <linearGradient
       inkscape:collect="always"
       id="linearGradient5166">
      <stop
         style="stop-color:#0074d9;stop-opacity:0.99068326"
         offset="0"
         id="stop5162" />
      <stop
         style="stop-color:#7fdbff;stop-opacity:1"
         offset="1"
         id="stop5164" />
    </linearGradient>
    <linearGradient
       id="menu1-3"
       inkscape:collect="always">
      <stop
         id="stop5064"
         offset="0"
         style="stop-color:#7fdbff;stop-opacity:0.99675333" />
      <stop
         id="stop5066"
         offset="1"
         style="stop-color:#001f3f;stop-opacity:1" />
    </linearGradient>
    <linearGradient
       inkscape:collect="always"
       xlink:href="#menu1-3"
       id="linearGradient4531"
       x1="42.495853"
       y1="29.358038"
       x2="41.69405"
       y2="299.67267"
       gradientUnits="userSpaceOnUse"
       gradientTransform="matrix(0.82441143,0,0,0.67032965,-0.14078843,99.864196)" />
    <linearGradient
       inkscape:collect="always"
       xlink:href="#linearGradient5177"
       id="linearGradient4739-8"
       x1="46.854752"
       y1="100.46428"
       x2="47.271927"
       y2="12.229671"
       gradientUnits="userSpaceOnUse"
       gradientTransform="matrix(0.82441141,0,0,0.3239523,-0.14078434,61.97732)" />
    <linearGradient
       inkscape:collect="always"
       xlink:href="#linearGradient5166"
       id="linearGradient5168"
       gradientUnits="userSpaceOnUse"
       gradientTransform="matrix(0.82441141,0,0,0.57068491,-0.14077782,4.387506)"
       x1="46.740128"
       y1="104.43881"
       x2="47.271927"
       y2="12.229671" />
    <linearGradient
       inkscape:collect="always"
       xlink:href="#linearGradient6946"
       id="linearGradient8740"
       gradientUnits="userSpaceOnUse"
       gradientTransform="matrix(0.99999291,0,0,1,0.0020233,-11.249984)"
       x1="266.64108"
       y1="281.58475"
       x2="125.28661"
       y2="16.033705" />
    <linearGradient
       inkscape:collect="always"
       xlink:href="#linearGradient5183"
       id="linearGradient5114"
       gradientUnits="userSpaceOnUse"
       gradientTransform="matrix(0.81540243,0,0,0.97981552,0.65531527,1.0080259)"
       x1="17.353075"
       y1="129.78487"
       x2="155.16208"
       y2="144.31424" />
    <linearGradient
       inkscape:collect="always"
       id="linearGradient5183">
      <stop
         style="stop-color:#585858;stop-opacity:1"
         offset="0"
         id="stop5179" />
      <stop
         style="stop-color:#060606;stop-opacity:1"
         offset="1"
         id="stop5181" />
    </linearGradient>
    <linearGradient
       inkscape:collect="always"
       xlink:href="#linearGradient6908"
       id="linearGradient6910"
       x1="28.811654"
       y1="161.36069"
       x2="43.40457"
       y2="161.36069"
       gradientUnits="userSpaceOnUse"
       gradientTransform="matrix(0.88141026,0,0,1,4.3522101,-0.52916667)" />
  </defs>
  <sodipodi:namedview
     id="base"
     pagecolor="#ffffff"
     bordercolor="#666666"
     borderopacity="1.0"
     inkscape:pageopacity="1"
     inkscape:pageshadow="2"
     inkscape:zoom="1"
     inkscape:cx="604.71424"
     inkscape:cy="658.49005"
     inkscape:document-units="px"
     inkscape:current-layer="layer1"
     showgrid="false"
     units="px"
     inkscape:window-width="1920"
     inkscape:window-height="1057"
     inkscape:window-x="-8"
     inkscape:window-y="-8"
     inkscape:window-maximized="1"
     showguides="true"
     inkscape:guide-bbox="true">
    <sodipodi:guide
       position="72.571429,294.06548"
       orientation="1,0"
       id="guide4879"
       inkscape:locked="false" />
    <inkscape:grid
       type="xygrid"
       id="grid7287" />
  </sodipodi:namedview>
  <metadata
     id="metadata5">
    <rdf:RDF>
      <cc:Work
         rdf:about="">
        <dc:format>image/svg+xml</dc:format>
        <dc:type
           rdf:resource="http://purl.org/dc/dcmitype/StillImage" />
        <dc:title />
      </cc:Work>
    </rdf:RDF>
  </metadata>
  <g
     inkscape:groupmode="layer"
     id="layer3"
     inkscape:label="Background"
     style="display:inline">
    <rect
       inkscape:export-ydpi="96"
       inkscape:export-xdpi="96"
       inkscape:export-filename="C:\Users\robert\Dropbox\sepm\KonzeptBilder\personal-elternwaltung.png"
       ry="0"
       y="-0.22840326"
       x="72.572945"
       height="286.77216"
       width="213.97081"
       id="rect8738"
       style="opacity:1;fill:url(#linearGradient8740);fill-opacity:1;stroke:#010101;stroke-width:0.06349978;stroke-linecap:round;stroke-miterlimit:4;stroke-dasharray:0.5079982, 0.5079982;stroke-dashoffset:0;stroke-opacity:1" />
  </g>
  <g
     inkscape:groupmode="layer"
     id="layer2"
     inkscape:label="Logo"
     style="display:inline">
    <rect
       id="rect4108"
       width="214.3125"
       height="28.602501"
       x="72.571426"
       y="24.91818"
       style="display:inline;fill:#000000;fill-opacity:0.54672899;stroke-width:0.14317298"
       ry="0" />
    <rect
       transform="translate(0,-11.249983)"
       style="display:inline;fill:#000000;fill-opacity:0.54672899;stroke-width:0.23534384"
       id="rect4915"
       width="214.31248"
       height="8.2020817"
       x="72.571426"
       y="36.168163" />
    <text
       transform="translate(0,-11.249983)"
       xml:space="preserve"
       style="font-style:normal;font-weight:normal;font-size:5.46171999px;line-height:1.25;font-family:sans-serif;letter-spacing:0px;word-spacing:0px;display:inline;fill:#eaeaea;fill-opacity:1;stroke:none;stroke-width:0.13654299"
       x="77.398949"
       y="42.595684"
       id="text4919"><tspan
         sodipodi:role="line"
         id="tspan4917"
         x="77.398949"
         y="42.595684"
         style="fill:#eaeaea;fill-opacity:1;stroke-width:0.13654299">Auswahl</tspan></text>
    <path
       style="fill:none;stroke:#000000;stroke-width:0.26458332px;stroke-linecap:butt;stroke-linejoin:miter;stroke-opacity:1"
       d="m 285.56097,60.01065 -0.13226,68.7919"
       id="path965"
       inkscape:connector-curvature="0" />
    <path
       style="display:inline;fill:none;stroke:#ffffff;stroke-width:1.05833333;stroke-linecap:butt;stroke-linejoin:miter;stroke-opacity:1;stroke-miterlimit:4;stroke-dasharray:none"
       d="M -0.13229166,119.98854 H 72.571429"
       id="path7656"
       inkscape:connector-curvature="0" />
  </g>
  <g
     inkscape:label="Ebene 1"
     inkscape:groupmode="layer"
     id="layer1"
     transform="translate(0,-11.249983)"
     style="display:inline">
    <text
       xml:space="preserve"
       style="font-style:normal;font-weight:normal;font-size:10.58333302px;line-height:1.25;font-family:sans-serif;letter-spacing:0px;word-spacing:0px;fill:#000000;fill-opacity:1;stroke:none;stroke-width:0.26458332"
       x="23.253195"
       y="141.62245"
       id="text4592-5"><tspan
         sodipodi:role="line"
         id="tspan4590-1"
         x="23.253195"
         y="150.98622"
         style="font-style:normal;font-variant:normal;font-weight:normal;font-stretch:normal;font-size:6.3499999px;font-family:sans-serif;-inkscape-font-specification:'sans-serif, Normal';font-variant-ligatures:normal;font-variant-caps:normal;font-variant-numeric:normal;font-feature-settings:normal;text-align:start;writing-mode:lr-tb;text-anchor:start;fill:#ffffff;fill-opacity:1;stroke-width:0.26458332" /></text>
    <flowRoot
       xml:space="preserve"
       id="flowRoot4776"
       style="font-style:normal;font-weight:normal;font-size:40px;line-height:1.25;font-family:sans-serif;letter-spacing:0px;word-spacing:0px;fill:#000000;fill-opacity:1;stroke:none"><flowRegion
         id="flowRegion4778"><rect
           id="rect4780"
           width="2504.6428"
           height="59.285713"
           x="516.78571"
           y="-63.214291" /></flowRegion><flowPara
         id="flowPara4782" /></flowRoot>    <text
       xml:space="preserve"
       style="font-style:normal;font-variant:normal;font-weight:bold;font-stretch:normal;font-size:5.16396379px;line-height:1.25;font-family:sans-serif;-inkscape-font-specification:'sans-serif, Bold';font-variant-ligatures:normal;font-variant-caps:normal;font-variant-numeric:normal;font-feature-settings:normal;text-align:start;letter-spacing:0px;word-spacing:0px;writing-mode:lr-tb;text-anchor:start;fill:#767676;fill-opacity:0.54509804;stroke:none;stroke-width:0.17604421"
       x="91.712051"
       y="203.19119"
       id="text5714"><tspan
         sodipodi:role="line"
         x="91.712051"
         y="203.19119"
         style="font-style:normal;font-variant:normal;font-weight:bold;font-stretch:normal;font-size:5.16396379px;font-family:sans-serif;-inkscape-font-specification:'sans-serif, Bold';font-variant-ligatures:normal;font-variant-caps:normal;font-variant-numeric:normal;font-feature-settings:normal;text-align:start;writing-mode:lr-tb;text-anchor:start;fill:#767676;fill-opacity:0.54509804;stroke-width:0.17604421"
         id="tspan5716">Informationen</tspan></text>
    <text
       xml:space="preserve"
       style="font-style:normal;font-variant:normal;font-weight:bold;font-stretch:normal;font-size:5.16852522px;line-height:1.25;font-family:sans-serif;-inkscape-font-specification:'sans-serif, Bold';font-variant-ligatures:normal;font-variant-caps:normal;font-variant-numeric:normal;font-feature-settings:normal;text-align:start;letter-spacing:0px;word-spacing:0px;writing-mode:lr-tb;text-anchor:start;fill:#767676;fill-opacity:0.54509804;stroke:none;stroke-width:0.17619972;stroke-opacity:1"
       x="147.1859"
       y="203.11659"
       id="text5714-8"><tspan
         sodipodi:role="line"
         x="147.1859"
         y="203.11659"
         style="font-style:normal;font-variant:normal;font-weight:bold;font-stretch:normal;font-size:5.16852522px;font-family:sans-serif;-inkscape-font-specification:'sans-serif, Bold';font-variant-ligatures:normal;font-variant-caps:normal;font-variant-numeric:normal;font-feature-settings:normal;text-align:start;writing-mode:lr-tb;text-anchor:start;fill:#767676;fill-opacity:0.54509804;stroke:none;stroke-width:0.17619972;stroke-opacity:1"
         id="tspan5696">Aufgaben zuweisen</tspan></text>
    <text
       id="text5751"
       y="262.96759"
       x="136.60693"
       style="font-style:normal;font-variant:normal;font-weight:bold;font-stretch:normal;font-size:7.10014486px;line-height:1.25;font-family:sans-serif;-inkscape-font-specification:'sans-serif, Bold';font-variant-ligatures:normal;font-variant-caps:normal;font-variant-numeric:normal;font-feature-settings:normal;text-align:start;letter-spacing:0px;word-spacing:0px;writing-mode:lr-tb;text-anchor:start;fill:#4f6e69;fill-opacity:1;stroke:none;stroke-width:0.24205038"
       xml:space="preserve"><tspan
         style="font-style:normal;font-variant:normal;font-weight:bold;font-stretch:normal;font-size:7.10014486px;font-family:sans-serif;-inkscape-font-specification:'sans-serif, Bold';font-variant-ligatures:normal;font-variant-caps:normal;font-variant-numeric:normal;font-feature-settings:normal;text-align:start;writing-mode:lr-tb;text-anchor:start;fill:#4f6e69;fill-opacity:1;stroke-width:0.24205038"
         y="262.96759"
         x="136.60693"
         sodipodi:role="line"
         id="tspan5692">Aufgabenübersicht</tspan></text>
    <text
       id="text5751-6"
       y="203.51001"
       x="216.73514"
       style="font-style:normal;font-variant:normal;font-weight:bold;font-stretch:normal;font-size:5.13232517px;line-height:1.25;font-family:sans-serif;-inkscape-font-specification:'sans-serif, Bold';font-variant-ligatures:normal;font-variant-caps:normal;font-variant-numeric:normal;font-feature-settings:normal;text-align:start;letter-spacing:0px;word-spacing:0px;writing-mode:lr-tb;text-anchor:start;fill:#767676;fill-opacity:0.54509804;stroke:none;stroke-width:0.17496562"
       xml:space="preserve"><tspan
         style="font-style:normal;font-variant:normal;font-weight:bold;font-stretch:normal;font-size:5.13232517px;font-family:sans-serif;-inkscape-font-specification:'sans-serif, Bold';font-variant-ligatures:normal;font-variant-caps:normal;font-variant-numeric:normal;font-feature-settings:normal;text-align:start;writing-mode:lr-tb;text-anchor:start;fill:#767676;fill-opacity:0.54509804;stroke-width:0.17496562"
         y="203.51001"
         x="216.73514"
         sodipodi:role="line"
         id="tspan7277">Daten bearbeiten</tspan></text>
    <rect
       style="opacity:1;fill:none;fill-opacity:1;stroke:#767676;stroke-width:0.56598216;stroke-linecap:round;stroke-linejoin:round;stroke-miterlimit:4;stroke-dasharray:none;stroke-dashoffset:0;stroke-opacity:0.54509804"
       id="rect5199"
       width="17.826235"
       height="26.74716"
       x="105.06379"
       y="167.26314"
       ry="1.3508753" />
    <path
       style="fill:none;fill-opacity:1;stroke:#767676;stroke-width:0.35208845;stroke-linecap:butt;stroke-linejoin:miter;stroke-miterlimit:4;stroke-dasharray:none;stroke-opacity:0.54509804"
       d="m 107.19921,189.76302 h 10.91474"
       id="path5213"
       inkscape:connector-curvature="0"
       sodipodi:nodetypes="cc" />
    <path
       inkscape:connector-curvature="0"
       id="path5215"
       d="m 107.19921,187.2984 h 13.20332"
       style="fill:none;fill-opacity:1;stroke:#767676;stroke-width:0.35208845;stroke-linecap:butt;stroke-linejoin:miter;stroke-miterlimit:4;stroke-dasharray:none;stroke-opacity:0.54509804" />
    <path
       style="fill:none;fill-opacity:1;stroke:#767676;stroke-width:0.35208845;stroke-linecap:butt;stroke-linejoin:miter;stroke-miterlimit:4;stroke-dasharray:none;stroke-opacity:0.54509804"
       d="m 107.19921,184.83378 h 13.20332"
       id="path5217"
       inkscape:connector-curvature="0" />
    <path
       inkscape:connector-curvature="0"
       id="path5219"
       d="m 107.19921,182.72125 h 6.16155"
       style="fill:none;fill-opacity:1;stroke:#767676;stroke-width:0.35208845;stroke-linecap:butt;stroke-linejoin:miter;stroke-miterlimit:4;stroke-dasharray:none;stroke-opacity:0.54509804"
       sodipodi:nodetypes="cc" />
    <path
       style="fill:none;fill-opacity:1;stroke:#767676;stroke-width:0.35208845;stroke-linecap:butt;stroke-linejoin:miter;stroke-miterlimit:4;stroke-dasharray:none;stroke-opacity:0.54509804"
       d="m 107.19921,179.90454 h 13.20332"
       id="path5221"
       inkscape:connector-curvature="0" />
    <path
       inkscape:connector-curvature="0"
       id="path5227"
       d="m 107.19921,177.08783 h 13.20332"
       style="fill:none;fill-opacity:1;stroke:#767676;stroke-width:0.35208845;stroke-linecap:butt;stroke-linejoin:miter;stroke-miterlimit:4;stroke-dasharray:none;stroke-opacity:0.54509804" />
    <path
       style="fill:none;stroke:#000000;stroke-width:0.26458332px;stroke-linecap:butt;stroke-linejoin:miter;stroke-opacity:1"
       d="M 229.65126,73.575745 Z"
       id="path5260"
       inkscape:connector-curvature="0" />
    <g
       id="g5389"
       transform="matrix(0.04460017,0,0,0.04460017,228.9271,172.25092)"
       style="display:inline;fill:#767676;fill-opacity:0.54509804">
      <path
         id="path5383"
         d="m 391.3,477.2 c -2.7,0 -5.4,-1 -7.5,-3.1 L 3.1,93.3 C -1,89.2 -1,82.5 3.1,78.4 L 78.4,3.1 C 82.5,-1 89.2,-1 93.3,3.1 l 380.8,380.8 c 4.1,4.1 4.1,10.8 0,14.9 l -75.3,75.3 c -2.1,2.1 -4.8,3.1 -7.5,3.1 z M 25.5,85.9 391.4,451.8 451.8,391.4 85.9,25.5 Z"
         inkscape:connector-curvature="0"
         style="fill:#767676;fill-opacity:0.54509804" />
      <path
         id="path5385"
         d="m 501.5,512 c -1.1,0 -2.1,-0.2 -3.2,-0.5 L 388.2,476.7 c -5.6,-1.8 -8.6,-7.7 -6.9,-13.2 1.8,-5.6 7.7,-8.6 13.2,-6.9 l 90.8,28.7 -28.7,-90.8 c -1.8,-5.6 1.3,-11.5 6.9,-13.2 5.6,-1.8 11.5,1.3 13.2,6.9 l 34.8,110.1 c 1.2,3.8 0.2,7.9 -2.6,10.6 -2,2 -4.7,3.1 -7.4,3.1 z"
         inkscape:connector-curvature="0"
         style="fill:#767676;fill-opacity:0.54509804" />
      <path
         id="path5387"
         d="m 55,140.9 c -2.7,0 -5.4,-1 -7.5,-3.1 -4.1,-4.1 -4.1,-10.8 0,-14.9 l 75.3,-75.3 c 4.1,-4.1 10.8,-4.1 14.9,0 4.1,4.1 4.1,10.8 0,14.9 l -75.3,75.3 c -2,2 -4.7,3.1 -7.4,3.1 z"
         inkscape:connector-curvature="0"
         style="fill:#767676;fill-opacity:0.54509804" />
    </g>
    <g
       id="g8982"
       transform="matrix(0.06163936,0,0,0.06163936,158.57921,222.83015)"
       style="fill:#4f6e69;fill-opacity:1">
      <path
         id="path8974"
         d="m 403.2,348.7 c 0,0 0,0 0,0 H 108.8 c -3.2,0 -6.2,-1.4 -8.2,-3.9 -2,-2.5 -2.8,-5.7 -2.1,-8.8 L 151.8,88.3 c 1,-4.9 5.3,-8.3 10.3,-8.3 h 187.7 c 5,0 9.3,3.5 10.3,8.3 l 53.2,247 c 0.3,0.9 0.4,1.9 0.4,2.9 0,5.8 -4.7,10.5 -10.5,10.5 z M 121.9,327.6 H 390.1 L 341.3,101 H 170.7 Z"
         inkscape:connector-curvature="0"
         style="fill:#4f6e69;fill-opacity:1" />
      <path
         id="path8976"
         d="M 349.9,101.1 H 162.2 c -5.8,0 -10.5,-4.7 -10.5,-10.5 v -80 c 0,-5.8 4.7,-10.5 10.5,-10.5 h 187.7 c 5.8,0 10.5,4.7 10.5,10.5 v 80 c 0,5.7 -4.7,10.5 -10.5,10.5 z M 172.7,80 H 339.3 V 21.1 H 172.7 Z"
         inkscape:connector-curvature="0"
         style="fill:#4f6e69;fill-opacity:1" />
      <path
         id="path8978"
         d="M 387.1,274 H 124.9 c -5.8,0 -10.5,-4.7 -10.5,-10.5 0,-5.8 4.7,-10.5 10.5,-10.5 H 387 c 5.8,0 10.5,4.7 10.5,10.5 0.1,5.7 -4.6,10.5 -10.4,10.5 z"
         inkscape:connector-curvature="0"
         style="fill:#4f6e69;fill-opacity:1" />
      <path
         id="path8980"
         d="m 256,512 c -5.8,0 -10.5,-4.7 -10.5,-10.5 V 345.2 c 0,-5.8 4.7,-10.5 10.5,-10.5 5.8,0 10.5,4.7 10.5,10.5 v 156.3 c 0,5.8 -4.7,10.5 -10.5,10.5 z"
         inkscape:connector-curvature="0"
         style="fill:#4f6e69;fill-opacity:1" />
    </g>
    <rect
       style="display:inline;fill:#eaeaea;fill-opacity:1;stroke-width:0.24264915"
       id="rect4921"
       width="96.043747"
       height="7.1437502"
       x="78.127663"
       y="51.514" />
    <text
       xml:space="preserve"
       style="font-style:normal;font-weight:normal;font-size:4.01193333px;line-height:1.25;font-family:sans-serif;letter-spacing:0px;word-spacing:0px;display:inline;fill:#3b3b3b;fill-opacity:1;stroke:none;stroke-width:0.10029833"
       x="80.356903"
       y="56.310852"
       id="text4927"><tspan
         sodipodi:role="line"
         id="tspan4925"
         x="80.356903"
         y="56.310852"
         style="fill:#3b3b3b;fill-opacity:1;stroke-width:0.10029833">Name eingeben</tspan></text>
    <rect
       style="display:inline;fill:#524f4f;fill-opacity:0.8627451;stroke-width:0.30054042"
       id="rect4931"
       width="214.0479"
       height="68.527084"
       x="72.571426"
       y="71.260635" />
    <text
       xml:space="preserve"
       style="font-style:normal;font-variant:normal;font-weight:normal;font-stretch:normal;font-size:4.23333311px;line-height:1.25;font-family:sans-serif;-inkscape-font-specification:'sans-serif, Normal';font-variant-ligatures:normal;font-variant-caps:normal;font-variant-numeric:normal;font-feature-settings:normal;text-align:start;letter-spacing:0px;word-spacing:0px;writing-mode:lr-tb;text-anchor:start;display:inline;fill:#ededed;fill-opacity:1;stroke:none;stroke-width:0.13348654"
       x="81.633797"
       y="76.536949"
       id="text4935"><tspan
         sodipodi:role="line"
         id="tspan4933"
         x="81.633797"
         y="76.536949"
         style="font-style:normal;font-variant:normal;font-weight:normal;font-stretch:normal;font-size:4.23333311px;font-family:sans-serif;-inkscape-font-specification:'sans-serif, Normal';font-variant-ligatures:normal;font-variant-caps:normal;font-variant-numeric:normal;font-feature-settings:normal;text-align:start;writing-mode:lr-tb;text-anchor:start;fill:#ededed;fill-opacity:1;stroke-width:0.13348654">Vor-/Nachname</tspan></text>
    <text
       xml:space="preserve"
       style="font-style:normal;font-variant:normal;font-weight:normal;font-stretch:normal;font-size:4.23333311px;line-height:1.25;font-family:sans-serif;-inkscape-font-specification:'sans-serif, Normal';font-variant-ligatures:normal;font-variant-caps:normal;font-variant-numeric:normal;font-feature-settings:normal;text-align:start;letter-spacing:0px;word-spacing:0px;writing-mode:lr-tb;text-anchor:start;display:inline;fill:#ededed;fill-opacity:1;stroke:none;stroke-width:0.13348654"
       x="243.43434"
       y="76.78405"
       id="text4935-9"><tspan
         sodipodi:role="line"
         id="tspan4933-7"
         x="243.43434"
         y="76.78405"
         style="font-style:normal;font-variant:normal;font-weight:normal;font-stretch:normal;font-size:4.23333311px;font-family:sans-serif;-inkscape-font-specification:'sans-serif, Normal';font-variant-ligatures:normal;font-variant-caps:normal;font-variant-numeric:normal;font-feature-settings:normal;text-align:start;writing-mode:lr-tb;text-anchor:start;fill:#ededed;fill-opacity:1;stroke-width:0.13348654">Geburtsdatum</tspan></text>
    <rect
       style="display:inline;fill:#f8f2eb;fill-opacity:0.86666661;stroke-width:0.30502793"
       id="rect4959"
       width="212.78506"
       height="60.589584"
       x="72.571426"
       y="79.198135" />
    <path
       style="display:inline;fill:none;stroke:#595959;stroke-width:0.26458332px;stroke-linecap:butt;stroke-linejoin:miter;stroke-opacity:1"
       d="M 225.76583,71.260635 V 140.05238"
       id="path4961"
       inkscape:connector-curvature="0" />
    <path
       style="display:inline;fill:none;stroke:#595959;stroke-width:0.30011544px;stroke-linecap:butt;stroke-linejoin:miter;stroke-opacity:1"
       d="M 72.571429,89.252302 H 286.35477"
       id="path4963"
       inkscape:connector-curvature="0" />
    <path
       inkscape:connector-curvature="0"
       id="path4965"
       d="M 72.571429,99.835607 H 286.88394"
       style="display:inline;fill:none;stroke:#595959;stroke-width:0.30048662px;stroke-linecap:butt;stroke-linejoin:miter;stroke-opacity:1" />
    <path
       style="display:inline;fill:none;stroke:#595959;stroke-width:0.30020827px;stroke-linecap:butt;stroke-linejoin:miter;stroke-opacity:1"
       d="M 72.571429,109.88984 H 286.48706"
       id="path4967"
       inkscape:connector-curvature="0" />
    <path
       inkscape:connector-curvature="0"
       id="path4969"
       d="M 72.571429,119.94407 H 286.75165"
       style="display:inline;fill:none;stroke:#595959;stroke-width:0.30039388px;stroke-linecap:butt;stroke-linejoin:miter;stroke-opacity:1" />
    <path
       style="display:inline;fill:none;stroke:#000000;stroke-width:0.30020827px;stroke-linecap:butt;stroke-linejoin:miter;stroke-opacity:1"
       d="M 72.571429,140.05253 H 286.48706"
       id="path4971"
       inkscape:connector-curvature="0" />
    <g
       id="g137"
       transform="matrix(0.04411234,0,0,0.04411234,164.03415,169.12896)"
       style="fill:#767676;fill-opacity:0.54509804">
      <path
         id="path133"
         d="m 501.5,266.5 c -2.6,0 -5.3,-1 -7.3,-3 L 302.7,78.5 c -4.2,-4 -4.3,-10.7 -0.3,-14.9 4,-4.2 10.7,-4.3 14.9,-0.3 l 191.5,185 c 4.2,4 4.3,10.7 0.3,14.9 -2.1,2.3 -4.9,3.3 -7.6,3.3 z"
         inkscape:connector-curvature="0"
         style="fill:#767676;fill-opacity:0.54509804" />
      <path
         id="path135"
         d="m 310,451.6 c -2.8,0 -5.5,-1.1 -7.6,-3.2 -4,-4.2 -3.9,-10.9 0.3,-14.9 L 475.4,266.6 H 182.7 C 93.6,266.6 21.1,339.1 21.1,428.2 V 441 c 0,5.8 -4.7,10.5 -10.5,10.5 C 4.8,451.5 0,446.9 0,441 V 428.1 C 0,327.4 81.9,245.4 182.7,245.4 h 318.8 c 4.3,0 8.2,2.6 9.8,6.6 1.6,4 0.6,8.5 -2.4,11.5 l -191.5,185 c -2.2,2.1 -4.8,3.1 -7.4,3.1 z"
         inkscape:connector-curvature="0"
         style="fill:#767676;fill-opacity:0.54509804" />
    </g>
    <path
       style="display:inline;fill:none;stroke:#595959;stroke-width:0.30039388px;stroke-linecap:butt;stroke-linejoin:miter;stroke-opacity:1"
       d="M 72.571429,130.52746 H 286.75165"
       id="path956"
       inkscape:connector-curvature="0" />
    <rect
       style="opacity:0.7;fill:url(#linearGradient5114);fill-opacity:1;stroke:none;stroke-width:0.02364941;stroke-linecap:round;stroke-miterlimit:4;stroke-dasharray:none;stroke-opacity:1"
       id="rect4485"
       width="72.571426"
       height="285.96729"
       x="0.0015184839"
       y="11.02158" />
    <path
       style="fill:#fefefe;fill-opacity:1;stroke:#ffffff;stroke-width:0.45118886;stroke-linecap:butt;stroke-linejoin:miter;stroke-miterlimit:4;stroke-dasharray:none;stroke-opacity:1"
       d="M -0.39937473,283.9943 H 72.572952"
       id="path4493-9-4-7-4"
       inkscape:connector-curvature="0" />
    <text
       xml:space="preserve"
       style="font-style:normal;font-variant:normal;font-weight:normal;font-stretch:normal;font-size:4.93888903px;line-height:1.25;font-family:sans-serif;-inkscape-font-specification:'sans-serif, Normal';font-variant-ligatures:normal;font-variant-caps:normal;font-variant-numeric:normal;font-feature-settings:normal;text-align:start;letter-spacing:0px;word-spacing:0px;writing-mode:lr-tb;text-anchor:start;fill:#000000;fill-opacity:1;stroke:none;stroke-width:0.26458332"
       x="18.574541"
       y="127.98158"
       id="text4592"><tspan
         sodipodi:role="line"
         id="tspan4590"
         x="18.574541"
         y="127.98158"
         style="font-style:normal;font-variant:normal;font-weight:normal;font-stretch:normal;font-size:4.93888903px;font-family:sans-serif;-inkscape-font-specification:'sans-serif, Normal';font-variant-ligatures:normal;font-variant-caps:normal;font-variant-numeric:normal;font-feature-settings:normal;text-align:start;writing-mode:lr-tb;text-anchor:start;fill:#ffffff;fill-opacity:1;stroke-width:0.26458332">TAGESPLANER</tspan></text>
    <text
       xml:space="preserve"
       style="font-style:normal;font-variant:normal;font-weight:normal;font-stretch:normal;font-size:4.93888903px;line-height:1.25;font-family:sans-serif;-inkscape-font-specification:'sans-serif, Normal';font-variant-ligatures:normal;font-variant-caps:normal;font-variant-numeric:normal;font-feature-settings:normal;text-align:start;letter-spacing:0px;word-spacing:0px;writing-mode:lr-tb;text-anchor:start;fill:#000000;fill-opacity:1;stroke:none;stroke-width:0.26458332"
       x="28.702744"
       y="115.69588"
       id="text4592-2"><tspan
         sodipodi:role="line"
         id="tspan4590-8"
         x="28.702744"
         y="115.69588"
         style="font-style:normal;font-variant:normal;font-weight:normal;font-stretch:normal;font-size:4.93888903px;font-family:sans-serif;-inkscape-font-specification:'sans-serif, Normal';font-variant-ligatures:normal;font-variant-caps:normal;font-variant-numeric:normal;font-feature-settings:normal;text-align:start;writing-mode:lr-tb;text-anchor:start;fill:#ffffff;fill-opacity:1;stroke-width:0.26458332">HOME</tspan></text>
    <text
       xml:space="preserve"
       style="font-style:normal;font-weight:normal;font-size:10.58333302px;line-height:1.25;font-family:sans-serif;letter-spacing:0px;word-spacing:0px;fill:#000000;fill-opacity:1;stroke:none;stroke-width:0.26458332"
       x="6.4050407"
       y="140.61122"
       id="text4592-55"><tspan
         sodipodi:role="line"
         id="tspan4590-0"
         x="6.4050407"
         y="140.61122"
         style="font-style:normal;font-variant:normal;font-weight:normal;font-stretch:normal;font-size:4.93888903px;font-family:sans-serif;-inkscape-font-specification:'sans-serif, Normal';font-variant-ligatures:normal;font-variant-caps:normal;font-variant-numeric:normal;font-feature-settings:normal;text-align:start;writing-mode:lr-tb;text-anchor:start;fill:#ffffff;fill-opacity:1;stroke-width:0.26458332">BENUTZERVERWALTUNG</tspan></text>
    <text
       xml:space="preserve"
       style="font-style:normal;font-weight:normal;font-size:10.58333302px;line-height:1.25;font-family:sans-serif;letter-spacing:0px;word-spacing:0px;fill:#000000;fill-opacity:1;stroke:none;stroke-width:0.26458332"
       x="25.770767"
       y="292.4852"
       id="text4592-55-6"><tspan
         sodipodi:role="line"
         id="tspan4590-0-9"
         x="25.770767"
         y="292.4852"
         style="font-style:normal;font-variant:normal;font-weight:normal;font-stretch:normal;font-size:4.93888903px;font-family:sans-serif;-inkscape-font-specification:'sans-serif, Normal';font-variant-ligatures:normal;font-variant-caps:normal;font-variant-numeric:normal;font-feature-settings:normal;text-align:start;writing-mode:lr-tb;text-anchor:start;fill:#ffffff;fill-opacity:1;stroke-width:0.26458332">LOGOUT</tspan></text>
    <path
       style="fill:none;stroke:#ffffff;stroke-width:0.2610217px;stroke-linecap:butt;stroke-linejoin:miter;stroke-opacity:1"
       d="M -0.00118973,145.3136 H 72.572952"
       id="path4683"
       inkscape:connector-curvature="0" />
    <path
       style="fill:none;stroke:#ffffff;stroke-width:0.26083353px;stroke-linecap:butt;stroke-linejoin:miter;stroke-opacity:1"
       d="M 0.10340827,153.86085 H 72.572952"
       id="path4685"
       inkscape:connector-curvature="0" />
    <path
       style="fill:none;stroke:#ffffff;stroke-width:0.26033822px;stroke-linecap:butt;stroke-linejoin:miter;stroke-opacity:1"
       d="M 0.11962127,162.75903 H 72.572952"
       id="path4687"
       inkscape:connector-curvature="0" />
    <path
       style="fill:none;stroke:#ffffff;stroke-width:0.22780283px;stroke-linecap:butt;stroke-linejoin:miter;stroke-opacity:1"
       d="M -0.53301573,58.718276 H 64.650628"
       id="path4742"
       inkscape:connector-curvature="0" />
    <path
       style="fill:none;stroke:#ffffff;stroke-width:0.22833538px;stroke-linecap:butt;stroke-linejoin:miter;stroke-opacity:1"
       d="M 7.0841653,62.192776 H 72.572952"
       id="path4742-8"
       inkscape:connector-curvature="0" />
    <text
       xml:space="preserve"
       style="font-style:normal;font-variant:normal;font-weight:normal;font-stretch:normal;font-size:7.76111126px;line-height:1.25;font-family:sans-serif;-inkscape-font-specification:'sans-serif, Normal';font-variant-ligatures:normal;font-variant-caps:normal;font-variant-numeric:normal;font-feature-settings:normal;text-align:start;letter-spacing:0px;word-spacing:0px;writing-mode:lr-tb;text-anchor:start;fill:#000000;fill-opacity:1;stroke:none;stroke-width:0.26458332"
       x="2.0775168"
       y="53.483589"
       id="text4761"><tspan
         sodipodi:role="line"
         id="tspan4759"
         x="2.0775168"
         y="53.483589"
         style="font-style:normal;font-variant:normal;font-weight:normal;font-stretch:normal;font-size:7.76111126px;font-family:sans-serif;-inkscape-font-specification:'sans-serif, Normal';font-variant-ligatures:normal;font-variant-caps:normal;font-variant-numeric:normal;font-feature-settings:normal;text-align:start;writing-mode:lr-tb;text-anchor:start;fill:#ffffff;fill-opacity:1;stroke-width:0.26458332">ABC Kindergarten</tspan></text>
    <path
       style="fill:none;stroke:#ffffff;stroke-width:0.88554931;stroke-linecap:butt;stroke-linejoin:miter;stroke-miterlimit:4;stroke-dasharray:none;stroke-opacity:1"
       d="M 6.7677908,141.75304 H 67.710067"
       id="path5428"
       inkscape:connector-curvature="0" />
    <path
       inkscape:connector-curvature="0"
       id="path5331"
       d="M 0.21411527,171.58959 H 72.572952"
       style="fill:none;stroke:#ffffff;stroke-width:0.26016837px;stroke-linecap:butt;stroke-linejoin:miter;stroke-opacity:1" />
    <rect
       style="fill:#bababa;fill-opacity:0.57586203;stroke:none;stroke-width:0.26458332;stroke-opacity:1"
       id="rect5333"
       width="72.574142"
       height="8.5472498"
       x="0.10340905"
       y="145.3136" />
    <rect
       y="154.06363"
       x="0.10340905"
       height="8.5472498"
       width="72.574142"
       id="rect5342"
       style="fill:#bababa;fill-opacity:0.57586203;stroke:none;stroke-width:0.26458332;stroke-opacity:1" />
    <rect
       style="fill:#bababa;fill-opacity:0.57586203;stroke:none;stroke-width:0.26458332;stroke-opacity:1"
       id="rect5344"
       width="72.574142"
       height="8.5472498"
       x="0.10340905"
       y="162.90819" />
    <text
       xml:space="preserve"
       style="font-style:normal;font-weight:normal;font-size:10.58333302px;line-height:1.25;font-family:sans-serif;letter-spacing:0px;word-spacing:0px;fill:#000000;fill-opacity:1;stroke:none;stroke-width:0.26458332"
       x="29.40654"
       y="150.92087"
       id="text4691"><tspan
         sodipodi:role="line"
         id="tspan4689"
         x="29.40654"
         y="150.92087"
         style="font-style:normal;font-variant:normal;font-weight:normal;font-stretch:normal;font-size:3.52777767px;font-family:sans-serif;-inkscape-font-specification:'sans-serif, Normal';font-variant-ligatures:normal;font-variant-caps:normal;font-variant-numeric:normal;font-feature-settings:normal;text-align:start;writing-mode:lr-tb;text-anchor:start;fill:#ffffff;fill-opacity:1;stroke-width:0.26458332">KINDER</tspan></text>
    <text
       xml:space="preserve"
       style="font-style:normal;font-weight:normal;font-size:10.58333302px;line-height:1.25;font-family:sans-serif;letter-spacing:0px;word-spacing:0px;fill:#000000;fill-opacity:1;stroke:none;stroke-width:0.26458332"
       x="29.476688"
       y="159.92125"
       id="text4691-7"><tspan
         sodipodi:role="line"
         id="tspan4689-2"
         x="29.476688"
         y="159.92125"
         style="font-style:normal;font-variant:normal;font-weight:normal;font-stretch:normal;font-size:3.52777767px;font-family:sans-serif;-inkscape-font-specification:'sans-serif, Normal';font-variant-ligatures:normal;font-variant-caps:normal;font-variant-numeric:normal;font-feature-settings:normal;text-align:start;writing-mode:lr-tb;text-anchor:start;fill:#ffffff;fill-opacity:1;stroke-width:0.26458332">ELTERN</tspan></text>
    <text
       xml:space="preserve"
       style="font-style:normal;font-weight:normal;font-size:10.58333302px;line-height:1.25;font-family:sans-serif;letter-spacing:0px;word-spacing:0px;fill:#000000;fill-opacity:1;stroke:none;stroke-width:0.26458332"
       x="26.606199"
       y="169.02994"
       id="text4691-7-6"><tspan
         sodipodi:role="line"
         id="tspan4689-2-7"
         x="26.606199"
         y="169.02994"
         style="font-style:normal;font-variant:normal;font-weight:normal;font-stretch:normal;font-size:3.52777767px;font-family:sans-serif;-inkscape-font-specification:'sans-serif, Normal';font-variant-ligatures:normal;font-variant-caps:normal;font-variant-numeric:normal;font-feature-settings:normal;text-align:start;writing-mode:lr-tb;text-anchor:start;fill:#ffffff;fill-opacity:1;stroke-width:0.26458332">PERSONAL</tspan></text>
    <path
       style="fill:url(#linearGradient6910);fill-opacity:1;stroke:#ffffff;stroke-width:0.52916667;stroke-linecap:butt;stroke-linejoin:miter;stroke-opacity:1;stroke-miterlimit:4;stroke-dasharray:none"
       d="M 29.747097,160.83152 H 42.609443"
       id="path6902"
       inkscape:connector-curvature="0" />
    <path
       style="fill:none;stroke:#ffffff;stroke-width:0.79374999;stroke-linecap:butt;stroke-linejoin:miter;stroke-miterlimit:4;stroke-dasharray:none;stroke-opacity:0.8"
       d="M -0.13229166,131.76769 H 72.571429"
       id="path7682"
       inkscape:connector-curvature="0" />
    <path
       inkscape:connector-curvature="0"
       id="path7684"
       d="M -0.13229166,120.65512 H 72.571429"
       style="fill:none;stroke:#ffffff;stroke-width:0.79374999;stroke-linecap:butt;stroke-linejoin:miter;stroke-miterlimit:4;stroke-dasharray:none;stroke-opacity:0.8" />
    <path
       style="fill:none;stroke:#ffffff;stroke-width:0.79374999;stroke-linecap:butt;stroke-linejoin:miter;stroke-miterlimit:4;stroke-dasharray:none;stroke-opacity:0.8"
       d="M -0.13229166,108.48421 H 72.571429"
       id="path7686"
       inkscape:connector-curvature="0" />
  </g>
</svg>
