<?xml version="1.0" encoding="UTF-8" standalone="no"?>
<!-- Created with Inkscape (http://www.inkscape.org/) -->

<svg
   xmlns:dc="http://purl.org/dc/elements/1.1/"
   xmlns:cc="http://creativecommons.org/ns#"
   xmlns:rdf="http://www.w3.org/1999/02/22-rdf-syntax-ns#"
   xmlns:svg="http://www.w3.org/2000/svg"
   xmlns="http://www.w3.org/2000/svg"
   xmlns:xlink="http://www.w3.org/1999/xlink"
   xmlns:sodipodi="http://sodipodi.sourceforge.net/DTD/sodipodi-0.dtd"
   xmlns:inkscape="http://www.inkscape.org/namespaces/inkscape"
   width="1080"
   height="1080"
   viewBox="0 0 285.74999 285.75001"
   version="1.1"
   id="svg8"
   inkscape:version="0.92.1 r"
   sodipodi:docname="Personal-planerverwaltung.svg"
   inkscape:export-filename="/home/robert/sepm/docs/GUI_mockup/preview/9-personal-planerverwaltung.png"
   inkscape:export-xdpi="96"
   inkscape:export-ydpi="96">
  <defs
     id="defs2">
    <linearGradient
       inkscape:collect="always"
       id="linearGradient12357">
      <stop
         style="stop-color:#1a9690;stop-opacity:0.23762377"
         offset="0"
         id="stop12353" />
      <stop
         style="stop-color:#1a9690;stop-opacity:0;"
         offset="1"
         id="stop12355" />
    </linearGradient>
    <linearGradient
       inkscape:collect="always"
       id="linearGradient5183">
      <stop
         style="stop-color:#585858;stop-opacity:1"
         offset="0"
         id="stop5179" />
      <stop
         style="stop-color:#060606;stop-opacity:1"
         offset="1"
         id="stop5181" />
    </linearGradient>
    <linearGradient
       inkscape:collect="always"
       id="linearGradient5177">
      <stop
         style="stop-color:#0030ff;stop-opacity:1"
         offset="0"
         id="stop5173" />
      <stop
         style="stop-color:#0074d9;stop-opacity:1"
         offset="1"
         id="stop5175" />
    </linearGradient>
    <linearGradient
       inkscape:collect="always"
       id="linearGradient5166">
      <stop
         style="stop-color:#0074d9;stop-opacity:0.99068326"
         offset="0"
         id="stop5162" />
      <stop
         style="stop-color:#7fdbff;stop-opacity:1"
         offset="1"
         id="stop5164" />
    </linearGradient>
    <linearGradient
       id="menu1-3"
       inkscape:collect="always">
      <stop
         id="stop5064"
         offset="0"
         style="stop-color:#7fdbff;stop-opacity:0.99675333" />
      <stop
         id="stop5066"
         offset="1"
         style="stop-color:#001f3f;stop-opacity:1" />
    </linearGradient>
    <linearGradient
       inkscape:collect="always"
       xlink:href="#menu1-3"
       id="linearGradient4531"
       x1="42.495853"
       y1="29.358038"
       x2="41.69405"
       y2="299.67267"
       gradientUnits="userSpaceOnUse"
       gradientTransform="matrix(0.82441143,0,0,0.67032965,-0.14078843,99.864196)" />
    <linearGradient
       inkscape:collect="always"
       xlink:href="#linearGradient5177"
       id="linearGradient4739-8"
       x1="46.854752"
       y1="100.46428"
       x2="47.271927"
       y2="12.229671"
       gradientUnits="userSpaceOnUse"
       gradientTransform="matrix(0.82441141,0,0,0.3239523,-0.14078434,61.97732)" />
    <linearGradient
       inkscape:collect="always"
       xlink:href="#linearGradient5183"
       id="linearGradient5114"
       gradientUnits="userSpaceOnUse"
       gradientTransform="matrix(0.81540244,0,0,0.97981551,0.65379571,0.90126596)"
       x1="17.353075"
       y1="129.78487"
       x2="155.16208"
       y2="144.31424" />
    <linearGradient
       inkscape:collect="always"
       xlink:href="#linearGradient5166"
       id="linearGradient5168"
       gradientUnits="userSpaceOnUse"
       gradientTransform="matrix(0.82441141,0,0,0.57068491,-0.14077782,4.387506)"
       x1="46.740128"
       y1="104.43881"
       x2="47.271927"
       y2="12.229671" />
    <linearGradient
       inkscape:collect="always"
       xlink:href="#linearGradient12357"
       id="linearGradient12359"
       x1="24.465746"
       y1="189.43625"
       x2="21.880323"
       y2="-24.378265"
       gradientUnits="userSpaceOnUse"
       gradientTransform="matrix(1.4619508,0,0,1.4619508,215.58645,44.903482)" />
  </defs>
  <sodipodi:namedview
     id="base"
     pagecolor="#ffffff"
     bordercolor="#666666"
     borderopacity="1.0"
     inkscape:pageopacity="1"
     inkscape:pageshadow="2"
     inkscape:zoom="0.70000001"
     inkscape:cx="582.21987"
     inkscape:cy="497.82878"
     inkscape:document-units="px"
     inkscape:current-layer="layer1"
     showgrid="false"
     units="px"
     inkscape:window-width="1920"
     inkscape:window-height="1039"
     inkscape:window-x="0"
     inkscape:window-y="41"
     inkscape:window-maximized="0"
     showguides="true"
     inkscape:guide-bbox="true">
    <sodipodi:guide
       position="72.571429,294.06548"
       orientation="1,0"
       id="guide4879"
       inkscape:locked="false" />
  </sodipodi:namedview>
  <metadata
     id="metadata5">
    <rdf:RDF>
      <cc:Work
         rdf:about="">
        <dc:format>image/svg+xml</dc:format>
        <dc:type
           rdf:resource="http://purl.org/dc/dcmitype/StillImage" />
        <dc:title></dc:title>
      </cc:Work>
    </rdf:RDF>
  </metadata>
  <g
     inkscape:groupmode="layer"
     id="layer2"
     inkscape:label="Logo" />
  <g
     inkscape:label="Ebene 1"
     inkscape:groupmode="layer"
     id="layer1"
     transform="translate(0,-11.249983)"
     sodipodi:insensitive="true">
    <rect
       style="opacity:0.7;fill:url(#linearGradient5114);fill-opacity:1;stroke:none;stroke-width:0.02364941;stroke-linecap:round;stroke-miterlimit:4;stroke-dasharray:none;stroke-opacity:1"
       id="rect4485"
       width="72.571426"
       height="285.96729"
       x="-7.2946148e-07"
       y="10.914819" />
    <path
       style="fill:#fefefe;fill-opacity:1;stroke:#ffffff;stroke-width:0.45118886;stroke-linecap:butt;stroke-linejoin:miter;stroke-miterlimit:4;stroke-dasharray:none;stroke-opacity:1"
       d="M -0.40089842,284.13884 H 72.571429"
       id="path4493-9-4-7-4"
       inkscape:connector-curvature="0" />
    <text
       xml:space="preserve"
       style="font-style:normal;font-variant:normal;font-weight:normal;font-stretch:normal;font-size:4.93888903px;line-height:1.25;font-family:sans-serif;-inkscape-font-specification:'sans-serif, Normal';font-variant-ligatures:normal;font-variant-caps:normal;font-variant-numeric:normal;font-feature-settings:normal;text-align:start;letter-spacing:0px;word-spacing:0px;writing-mode:lr-tb;text-anchor:start;fill:#000000;fill-opacity:1;stroke:none;stroke-width:0.26458332"
       x="18.573015"
       y="128.12613"
       id="text4592"><tspan
         sodipodi:role="line"
         id="tspan4590"
         x="18.573015"
         y="128.12613"
         style="font-style:normal;font-variant:normal;font-weight:normal;font-stretch:normal;font-size:4.93888903px;font-family:sans-serif;-inkscape-font-specification:'sans-serif, Normal';font-variant-ligatures:normal;font-variant-caps:normal;font-variant-numeric:normal;font-feature-settings:normal;text-align:start;writing-mode:lr-tb;text-anchor:start;fill:#ffffff;fill-opacity:1;stroke-width:0.26458332">TAGESPLANER</tspan></text>
    <text
       xml:space="preserve"
       style="font-style:normal;font-variant:normal;font-weight:normal;font-stretch:normal;font-size:4.93888903px;line-height:1.25;font-family:sans-serif;-inkscape-font-specification:'sans-serif, Normal';font-variant-ligatures:normal;font-variant-caps:normal;font-variant-numeric:normal;font-feature-settings:normal;text-align:start;letter-spacing:0px;word-spacing:0px;writing-mode:lr-tb;text-anchor:start;fill:#000000;fill-opacity:1;stroke:none;stroke-width:0.26458332"
       x="28.70122"
       y="115.84043"
       id="text4592-2"><tspan
         sodipodi:role="line"
         id="tspan4590-8"
         x="28.70122"
         y="115.84043"
         style="font-style:normal;font-variant:normal;font-weight:normal;font-stretch:normal;font-size:4.93888903px;font-family:sans-serif;-inkscape-font-specification:'sans-serif, Normal';font-variant-ligatures:normal;font-variant-caps:normal;font-variant-numeric:normal;font-feature-settings:normal;text-align:start;writing-mode:lr-tb;text-anchor:start;fill:#ffffff;fill-opacity:1;stroke-width:0.26458332">HOME</tspan></text>
    <text
       xml:space="preserve"
       style="font-style:normal;font-weight:normal;font-size:10.58333302px;line-height:1.25;font-family:sans-serif;letter-spacing:0px;word-spacing:0px;fill:#000000;fill-opacity:1;stroke:none;stroke-width:0.26458332"
       x="23.253195"
       y="141.62245"
       id="text4592-5"><tspan
         sodipodi:role="line"
         id="tspan4590-1"
         x="23.253195"
         y="150.98622"
         style="font-style:normal;font-variant:normal;font-weight:normal;font-stretch:normal;font-size:6.3499999px;font-family:sans-serif;-inkscape-font-specification:'sans-serif, Normal';font-variant-ligatures:normal;font-variant-caps:normal;font-variant-numeric:normal;font-feature-settings:normal;text-align:start;writing-mode:lr-tb;text-anchor:start;fill:#ffffff;fill-opacity:1;stroke-width:0.26458332" /></text>
    <text
       xml:space="preserve"
       style="font-style:normal;font-weight:normal;font-size:10.58333302px;line-height:1.25;font-family:sans-serif;letter-spacing:0px;word-spacing:0px;fill:#000000;fill-opacity:1;stroke:none;stroke-width:0.26458332"
       x="6.4035177"
       y="158.74721"
       id="text4592-55"><tspan
         sodipodi:role="line"
         id="tspan4590-0"
         x="6.4035177"
         y="158.74721"
         style="font-style:normal;font-variant:normal;font-weight:normal;font-stretch:normal;font-size:4.93888903px;font-family:sans-serif;-inkscape-font-specification:'sans-serif, Normal';font-variant-ligatures:normal;font-variant-caps:normal;font-variant-numeric:normal;font-feature-settings:normal;text-align:start;writing-mode:lr-tb;text-anchor:start;fill:#ffffff;fill-opacity:1;stroke-width:0.26458332">BENUTZERVERWALTUNG</tspan></text>
    <text
       xml:space="preserve"
       style="font-style:normal;font-weight:normal;font-size:10.58333302px;line-height:1.25;font-family:sans-serif;letter-spacing:0px;word-spacing:0px;fill:#000000;fill-opacity:1;stroke:none;stroke-width:0.26458332"
       x="25.769243"
       y="292.62973"
       id="text4592-55-6"><tspan
         sodipodi:role="line"
         id="tspan4590-0-9"
         x="25.769243"
         y="292.62973"
         style="font-style:normal;font-variant:normal;font-weight:normal;font-stretch:normal;font-size:4.93888903px;font-family:sans-serif;-inkscape-font-specification:'sans-serif, Normal';font-variant-ligatures:normal;font-variant-caps:normal;font-variant-numeric:normal;font-feature-settings:normal;text-align:start;writing-mode:lr-tb;text-anchor:start;fill:#ffffff;fill-opacity:1;stroke-width:0.26458332">LOGOUT</tspan></text>
    <path
       style="fill:none;stroke:#ffffff;stroke-width:0.22780283px;stroke-linecap:butt;stroke-linejoin:miter;stroke-opacity:1"
       d="M -0.53453905,58.862833 H 64.649104"
       id="path4742"
       inkscape:connector-curvature="0" />
    <path
       style="fill:none;stroke:#ffffff;stroke-width:0.22833538px;stroke-linecap:butt;stroke-linejoin:miter;stroke-opacity:1"
       d="M 7.0826418,62.337337 H 72.571429"
       id="path4742-8"
       inkscape:connector-curvature="0" />
    <text
       xml:space="preserve"
       style="font-style:normal;font-variant:normal;font-weight:normal;font-stretch:normal;font-size:7.76111126px;line-height:1.25;font-family:sans-serif;-inkscape-font-specification:'sans-serif, Normal';font-variant-ligatures:normal;font-variant-caps:normal;font-variant-numeric:normal;font-feature-settings:normal;text-align:start;letter-spacing:0px;word-spacing:0px;writing-mode:lr-tb;text-anchor:start;fill:#000000;fill-opacity:1;stroke:none;stroke-width:0.26458332"
       x="2.0759921"
       y="53.628151"
       id="text4761"><tspan
         sodipodi:role="line"
         id="tspan4759"
         x="2.0759921"
         y="53.628151"
         style="font-style:normal;font-variant:normal;font-weight:normal;font-stretch:normal;font-size:7.76111126px;font-family:sans-serif;-inkscape-font-specification:'sans-serif, Normal';font-variant-ligatures:normal;font-variant-caps:normal;font-variant-numeric:normal;font-feature-settings:normal;text-align:start;writing-mode:lr-tb;text-anchor:start;fill:#ffffff;fill-opacity:1;stroke-width:0.26458332">ABC Kindergarten</tspan></text>
    <flowRoot
       xml:space="preserve"
       id="flowRoot4776"
       style="font-style:normal;font-weight:normal;font-size:40px;line-height:1.25;font-family:sans-serif;letter-spacing:0px;word-spacing:0px;fill:#000000;fill-opacity:1;stroke:none"><flowRegion
         id="flowRegion4778"><rect
           id="rect4780"
           width="2504.6428"
           height="59.285713"
           x="516.78571"
           y="-63.214291" /></flowRegion><flowPara
         id="flowPara4782" /></flowRoot>    <path
       style="fill:none;stroke:#ffffff;stroke-width:0.66145831;stroke-linecap:butt;stroke-linejoin:miter;stroke-miterlimit:4;stroke-dasharray:none;stroke-opacity:1"
       d="M 19.675386,129.72669 H 53.676892"
       id="path5428"
       inkscape:connector-curvature="0" />
    <path
       inkscape:connector-curvature="0"
       id="path5331"
       d="M -1.5417992e-5,133.93455 H 72.358818"
       style="fill:none;stroke:#ffffff;stroke-width:0.26016837px;stroke-linecap:butt;stroke-linejoin:miter;stroke-opacity:1" />
    <rect
       style="fill:#bababa;fill-opacity:0.57586203;stroke:none;stroke-width:0.26458332;stroke-opacity:1"
       id="rect5333"
       width="72.574135"
       height="8.5472498"
       x="-0.0027045289"
       y="134.005" />
    <rect
       y="142.55226"
       x="-0.0026997605"
       height="8.5472498"
       width="72.574135"
       id="rect5342"
       style="fill:#bababa;fill-opacity:0.57586203;stroke:none;stroke-width:0.26458332;stroke-opacity:1" />
    <path
       style="fill:none;stroke:#ffffff;stroke-width:0.79374999;stroke-linecap:butt;stroke-linejoin:miter;stroke-miterlimit:4;stroke-dasharray:none;stroke-opacity:0.8"
       d="M -0.37797618,151.51706 H 72.571429"
       id="path7688"
       inkscape:connector-curvature="0" />
    <path
       inkscape:connector-curvature="0"
       id="path7690"
       d="M -0.37797618,120.29603 H 72.571429"
       style="fill:none;stroke:#ffffff;stroke-width:0.79374999;stroke-linecap:butt;stroke-linejoin:miter;stroke-miterlimit:4;stroke-dasharray:none;stroke-opacity:0.8" />
    <path
       style="fill:none;stroke:#ffffff;stroke-width:0.79374999;stroke-linecap:butt;stroke-linejoin:miter;stroke-miterlimit:4;stroke-dasharray:none;stroke-opacity:0.8"
       d="M -0.37797618,108.65429 H 72.571429"
       id="path7692"
       inkscape:connector-curvature="0" />
    <path
       inkscape:connector-curvature="0"
       id="path7694"
       d="M -0.37797618,162.62963 H 72.571429"
       style="fill:none;stroke:#ffffff;stroke-width:0.79374999;stroke-linecap:butt;stroke-linejoin:miter;stroke-miterlimit:4;stroke-dasharray:none;stroke-opacity:0.8" />
    <path
       style="fill:none;stroke:#ffffff;stroke-width:0.26016837px;stroke-linecap:butt;stroke-linejoin:miter;stroke-opacity:1"
       d="M 0.07085526,142.47171 H 72.429693"
       id="path7696"
       inkscape:connector-curvature="0" />
    <path
       style="fill:none;stroke:#ffffff;stroke-width:0.87790346;stroke-linecap:butt;stroke-linejoin:miter;stroke-miterlimit:4;stroke-dasharray:none;stroke-opacity:0.8"
       d="M 18.307963,149.11403 H 56.928409"
       id="path7700"
       inkscape:connector-curvature="0" />
    <rect
       style="opacity:1;fill:url(#linearGradient12359);fill-opacity:1;fill-rule:evenodd;stroke:none;stroke-width:0.02645834;stroke-miterlimit:4;stroke-dasharray:none;stroke-opacity:1"
       id="rect12351"
       width="215.06845"
       height="286.46313"
       x="72.571426"
       y="10.418999" />
  </g>
  <g
     inkscape:groupmode="layer"
     id="layer3"
     inkscape:label="front">
    <text
       xml:space="preserve"
       style="font-style:normal;font-weight:normal;font-size:10.58333302px;line-height:1.25;font-family:sans-serif;letter-spacing:0px;word-spacing:0px;fill:#000000;fill-opacity:1;stroke:none;stroke-width:0.26458332"
       x="30.538946"
       y="128.13548"
       id="text4691"><tspan
         sodipodi:role="line"
         id="tspan4689"
         x="30.538946"
         y="128.13548"
         style="font-style:normal;font-variant:normal;font-weight:normal;font-stretch:normal;font-size:3.52777767px;font-family:sans-serif;-inkscape-font-specification:'sans-serif, Normal';font-variant-ligatures:normal;font-variant-caps:normal;font-variant-numeric:normal;font-feature-settings:normal;text-align:start;writing-mode:lr-tb;text-anchor:start;fill:#ffffff;fill-opacity:1;stroke-width:0.26458332">PLANER</tspan></text>
    <text
       xml:space="preserve"
       style="font-style:normal;font-weight:normal;font-size:10.58333302px;line-height:1.25;font-family:sans-serif;letter-spacing:0px;word-spacing:0px;fill:#000000;fill-opacity:1;stroke:none;stroke-width:0.26458332"
       x="18.249262"
       y="136.90913"
       id="text4691-7"><tspan
         sodipodi:role="line"
         id="tspan4689-2"
         x="18.249262"
         y="136.90913"
         style="font-style:normal;font-variant:normal;font-weight:normal;font-stretch:normal;font-size:3.52777767px;font-family:sans-serif;-inkscape-font-specification:'sans-serif, Normal';font-variant-ligatures:normal;font-variant-caps:normal;font-variant-numeric:normal;font-feature-settings:normal;text-align:start;writing-mode:lr-tb;text-anchor:start;fill:#ffffff;fill-opacity:1;stroke-width:0.26458332">PLANER VERWALTUNG</tspan></text>
    <text
       xml:space="preserve"
       style="font-style:normal;font-variant:normal;font-weight:bold;font-stretch:normal;font-size:7.05555534px;line-height:1.25;font-family:sans-serif;-inkscape-font-specification:'sans-serif, Bold';font-variant-ligatures:normal;font-variant-caps:normal;font-variant-numeric:normal;font-feature-settings:normal;text-align:start;letter-spacing:0px;word-spacing:0px;writing-mode:lr-tb;text-anchor:start;fill:#0a84a5;fill-opacity:1;stroke:none;stroke-width:0.26458332"
       x="106.81606"
       y="105.68217"
       id="text10302"><tspan
         sodipodi:role="line"
         id="tspan10300"
         x="106.81606"
         y="105.68217"
         style="font-style:normal;font-variant:normal;font-weight:bold;font-stretch:normal;font-size:7.05555534px;font-family:sans-serif;-inkscape-font-specification:'sans-serif, Bold';font-variant-ligatures:normal;font-variant-caps:normal;font-variant-numeric:normal;font-feature-settings:normal;text-align:start;writing-mode:lr-tb;text-anchor:start;fill:#0a84a5;fill-opacity:1;stroke-width:0.26458332">Menü </tspan><tspan
         sodipodi:role="line"
         x="106.81606"
         y="114.50161"
         style="font-style:normal;font-variant:normal;font-weight:bold;font-stretch:normal;font-size:7.05555534px;font-family:sans-serif;-inkscape-font-specification:'sans-serif, Bold';font-variant-ligatures:normal;font-variant-caps:normal;font-variant-numeric:normal;font-feature-settings:normal;text-align:start;writing-mode:lr-tb;text-anchor:start;fill:#0a84a5;fill-opacity:1;stroke-width:0.26458332"
         id="tspan10304"> bearbeiten</tspan></text>
    <path
       id="path10306"
       d="m 146.44595,64.510783 c 0,-3.952326 -3.23375,-7.186047 -7.18604,-7.186047 -0.59883,0 -1.07793,0.119774 -1.67676,0.239551 -1.31742,-1.676746 -3.23369,-2.634882 -5.50929,-2.634882 -2.27558,0 -4.19185,0.958136 -5.50929,2.634882 -0.59887,-0.119774 -1.07793,-0.239551 -1.67676,-0.239551 -3.95235,0 -7.18604,3.233721 -7.18604,7.186047 0,3.113956 2.03603,5.748836 4.79068,6.826744 v 11.138372 c 0,0.718604 0.4791,1.197678 1.19769,1.197678 h 16.76742 c 0.71862,0 1.19771,-0.479074 1.19771,-1.197678 V 71.337527 c 2.75465,-1.077908 4.79068,-3.712788 4.79068,-6.826744 z m -7.18604,16.767444 h -14.3721 v -2.395351 h 14.3721 z m 0,-11.976745 v 8.383721 h -14.3721 v -8.383721 c -2.63486,0 -4.79069,-2.155811 -4.79069,-4.790699 0,-2.634883 2.15583,-4.790696 4.79069,-4.790696 0.12002,0 0.23946,0 0.35942,0 0.83837,0.119774 1.67677,0.359279 2.27559,0.83837 0.35942,-0.83837 0.71861,-1.437209 1.43721,-2.036044 0.83838,-0.718604 1.91631,-1.197677 3.11397,-1.197677 1.19764,0 2.27559,0.479073 3.11396,1.197677 0.59884,0.479069 1.0779,1.197674 1.31743,2.036044 0.71861,-0.479067 1.55699,-0.718605 2.39533,-0.83837 0.12001,0 0.23945,0 0.3594,0 2.63487,0 4.7907,2.155813 4.7907,4.790696 0,2.634888 -2.15583,4.790699 -4.7907,4.790699 z"
       inkscape:connector-curvature="0"
       style="fill:#0a84a5;fill-opacity:1;stroke:none;stroke-width:1.19767439;stroke-opacity:1" />
    <g
       id="TabBar-Icons"
       transform="matrix(1.4619508,0,0,1.4619508,217.17396,53.728498)"
       style="fill:#6e2278;fill-opacity:1;fill-rule:evenodd;stroke:none;stroke-width:0.01809796;stroke-miterlimit:4;stroke-dasharray:none">
      <g
         id="Clock"
         style="fill:#6e2278;fill-opacity:1;stroke-width:0.01809796;stroke-miterlimit:4;stroke-dasharray:none">
        <path
           id="path10322"
           d="m 5.3338491,21.888435 c 5.9443759,0 10.7632419,-4.818866 10.7632419,-10.763238 0,-5.9443719 -4.818866,-10.76323771 -10.7632419,-10.76323771 -5.94437275,0 -10.7632386,4.81886581 -10.7632386,10.76323771 0,5.944372 4.81886585,10.763238 10.7632386,10.763238 z m 0,-0.861059 c 5.4688269,0 9.9021829,-4.433356 9.9021829,-9.902179 0,-5.4688221 -4.433356,-9.9021787 -9.9021829,-9.9021787 -5.46882296,0 -9.9021795,4.4333566 -9.9021795,9.9021787 0,5.468823 4.43335654,9.902179 9.9021795,9.902179 z M 4.9033195,5.5283136 H 5.7643794 V 13.277845 H 4.9033195 Z m 0.8610599,6.8884724 h 6.8884756 v 0.861059 H 5.7643794 Z"
           inkscape:connector-curvature="0"
           style="fill:#6e2278;fill-opacity:1;stroke-width:0.01558341;stroke-miterlimit:4;stroke-dasharray:none" />
        <text
           id="text5751"
           y="102.30151"
           x="-80.099953"
           style="font-style:normal;font-variant:normal;font-weight:bold;font-stretch:normal;font-size:4.85662365px;line-height:1.25;font-family:sans-serif;-inkscape-font-specification:'sans-serif, Bold';font-variant-ligatures:normal;font-variant-caps:normal;font-variant-numeric:normal;font-feature-settings:normal;text-align:start;letter-spacing:0px;word-spacing:0px;writing-mode:lr-tb;text-anchor:start;display:inline;fill:#136e69;fill-opacity:1;stroke:none;stroke-width:0.16556671"
           xml:space="preserve"><tspan
             style="font-style:normal;font-variant:normal;font-weight:bold;font-stretch:normal;font-size:4.85662365px;font-family:sans-serif;-inkscape-font-specification:'sans-serif, Bold';font-variant-ligatures:normal;font-variant-caps:normal;font-variant-numeric:normal;font-feature-settings:normal;text-align:start;writing-mode:lr-tb;text-anchor:start;fill:#136e69;fill-opacity:1;stroke-width:0.16556671"
             y="102.30151"
             x="-80.099953"
             sodipodi:role="line"
             id="tspan5692">Eltern-Aufgaben</tspan><tspan
             style="font-style:normal;font-variant:normal;font-weight:bold;font-stretch:normal;font-size:4.85662365px;font-family:sans-serif;-inkscape-font-specification:'sans-serif, Bold';font-variant-ligatures:normal;font-variant-caps:normal;font-variant-numeric:normal;font-feature-settings:normal;text-align:start;writing-mode:lr-tb;text-anchor:start;fill:#136e69;fill-opacity:1;stroke-width:0.16556671"
             y="108.37229"
             x="-80.099953"
             sodipodi:role="line"
             id="tspan12349">       bearbeiten</tspan></text>
        <g
           id="g8982"
           transform="matrix(0.0421624,0,0,0.0421624,-69.776002,74.846797)"
           style="display:inline;fill:#136e69;fill-opacity:1">
          <path
             id="path8974"
             d="m 403.2,348.7 c 0,0 0,0 0,0 H 108.8 c -3.2,0 -6.2,-1.4 -8.2,-3.9 -2,-2.5 -2.8,-5.7 -2.1,-8.8 L 151.8,88.3 c 1,-4.9 5.3,-8.3 10.3,-8.3 h 187.7 c 5,0 9.3,3.5 10.3,8.3 l 53.2,247 c 0.3,0.9 0.4,1.9 0.4,2.9 0,5.8 -4.7,10.5 -10.5,10.5 z M 121.9,327.6 H 390.1 L 341.3,101 H 170.7 Z"
             inkscape:connector-curvature="0"
             style="fill:#136e69;fill-opacity:1" />
          <path
             id="path8976"
             d="M 349.9,101.1 H 162.2 c -5.8,0 -10.5,-4.7 -10.5,-10.5 v -80 c 0,-5.8 4.7,-10.5 10.5,-10.5 h 187.7 c 5.8,0 10.5,4.7 10.5,10.5 v 80 c 0,5.7 -4.7,10.5 -10.5,10.5 z M 172.7,80 H 339.3 V 21.1 H 172.7 Z"
             inkscape:connector-curvature="0"
             style="fill:#136e69;fill-opacity:1" />
          <path
             id="path8978"
             d="M 387.1,274 H 124.9 c -5.8,0 -10.5,-4.7 -10.5,-10.5 0,-5.8 4.7,-10.5 10.5,-10.5 H 387 c 5.8,0 10.5,4.7 10.5,10.5 0.1,5.7 -4.6,10.5 -10.4,10.5 z"
             inkscape:connector-curvature="0"
             style="fill:#136e69;fill-opacity:1" />
          <path
             id="path8980"
             d="m 256,512 c -5.8,0 -10.5,-4.7 -10.5,-10.5 V 345.2 c 0,-5.8 4.7,-10.5 10.5,-10.5 5.8,0 10.5,4.7 10.5,10.5 v 156.3 c 0,5.8 -4.7,10.5 -10.5,10.5 z"
             inkscape:connector-curvature="0"
             style="fill:#136e69;fill-opacity:1" />
        </g>
      </g>
    </g>
    <text
       xml:space="preserve"
       style="font-style:normal;font-variant:normal;font-weight:bold;font-stretch:normal;font-size:7.05555534px;line-height:1.25;font-family:sans-serif;-inkscape-font-specification:'sans-serif, Bold';font-variant-ligatures:normal;font-variant-caps:normal;font-variant-numeric:normal;font-feature-settings:normal;text-align:start;letter-spacing:0px;word-spacing:0px;writing-mode:lr-tb;text-anchor:start;fill:#6e2278;fill-opacity:1;stroke:none;stroke-width:0.26458332"
       x="192.23064"
       y="107.23442"
       id="text10302-3"><tspan
         sodipodi:role="line"
         id="tspan10300-8"
         x="192.23064"
         y="107.23442"
         style="font-style:normal;font-variant:normal;font-weight:bold;font-stretch:normal;font-size:7.05555534px;font-family:sans-serif;-inkscape-font-specification:'sans-serif, Bold';font-variant-ligatures:normal;font-variant-caps:normal;font-variant-numeric:normal;font-feature-settings:normal;text-align:start;writing-mode:lr-tb;text-anchor:start;fill:#6e2278;fill-opacity:1;stroke-width:0.26458332">Öffnungzeiten </tspan><tspan
         sodipodi:role="line"
         x="192.23064"
         y="116.05386"
         style="font-style:normal;font-variant:normal;font-weight:bold;font-stretch:normal;font-size:7.05555534px;font-family:sans-serif;-inkscape-font-specification:'sans-serif, Bold';font-variant-ligatures:normal;font-variant-caps:normal;font-variant-numeric:normal;font-feature-settings:normal;text-align:start;writing-mode:lr-tb;text-anchor:start;fill:#6e2278;fill-opacity:1;stroke-width:0.26458332"
         id="tspan10304-5">    bearbeiten</tspan></text>
  </g>
</svg>
